P5/2022/6/aba/test_CPU/wave.vcd
$date
	Thu Nov 24 16:42:04 2022
$end
$version
	Icarus Verilog
$end
$timescale
	1ps
$end
$scope module tb_mips $end
$var reg 1 ! clk $end
$var reg 1 " reset $end
$scope module u_mips $end
$var wire 1 # DBeqFlag $end
$var wire 1 $ DregEn $end
$var wire 32 % ENUM1 [31:0] $end
$var wire 1 & EregClr $end
$var wire 1 ' PCen $end
$var wire 1 ( RSstall $end
$var wire 1 ) RTstall $end
$var wire 1 * StallFlag $end
$var wire 1 ! clk $end
$var wire 1 " reset $end
$var wire 1 + rsGet $end
$var wire 1 , rtGet $end
$var wire 1 - newInE $end
$var wire 32 . Winstr [31:0] $end
$var wire 3 / WWDsrc [2:0] $end
$var wire 1 0 WRegWrite $end
$var wire 32 1 WPC [31:0] $end
$var wire 32 2 WForwardFrom [31:0] $end
$var wire 32 3 WEXTout [31:0] $end
$var wire 32 4 WDMout [31:0] $end
$var wire 32 5 WALUout [31:0] $end
$var wire 5 6 WA3 [4:0] $end
$var wire 2 7 TuseRt [1:0] $end
$var wire 2 8 TuseRs [1:0] $end
$var wire 2 9 TnewM [1:0] $end
$var wire 2 : TnewE [1:0] $end
$var wire 32 ; RD2 [31:0] $end
$var wire 32 < RD1 [31:0] $end
$var wire 32 = PCin [31:0] $end
$var wire 5 > Mrt [4:0] $end
$var wire 32 ? Minstr [31:0] $end
$var wire 3 @ MWDsrc [2:0] $end
$var wire 32 A MWD [31:0] $end
$var wire 32 B MPC [31:0] $end
$var wire 1 C MMemtoReg $end
$var wire 1 D MMemWrite $end
$var wire 32 E MGRFrtOut [31:0] $end
$var wire 32 F MForwardFrom [31:0] $end
$var wire 32 G MEXTout [31:0] $end
$var wire 32 H MDMout [31:0] $end
$var wire 32 I MALUout [31:0] $end
$var wire 5 J MA3 [4:0] $end
$var wire 32 K Finstr [31:0] $end
$var wire 32 L FPC [31:0] $end
$var wire 5 M Ert [4:0] $end
$var wire 5 N Ers [4:0] $end
$var wire 32 O Einstr [31:0] $end
$var wire 3 P EWDsrc [2:0] $end
$var wire 32 Q ERtDataout [31:0] $end
$var wire 32 R ERsDataout [31:0] $end
$var wire 32 S EPC [31:0] $end
$var wire 32 T ENUM2 [31:0] $end
$var wire 1 U EMemtoReg $end
$var wire 32 V EForwardToRt [31:0] $end
$var wire 32 W EForwardToRs [31:0] $end
$var wire 32 X EForwardFrom [31:0] $end
$var wire 32 Y EEXTout [31:0] $end
$var wire 2 Z EALUsrc [1:0] $end
$var wire 32 [ EALUout [31:0] $end
$var wire 3 \ EALUop [2:0] $end
$var wire 5 ] EA3 [4:0] $end
$var wire 5 ^ Drt [4:0] $end
$var wire 5 _ Drs [4:0] $end
$var wire 26 ` Dinstr_index [25:0] $end
$var wire 32 a Dinstr [31:0] $end
$var wire 16 b Dimm [15:0] $end
$var wire 1 c DUseInE $end
$var wire 1 d DRegDst $end
$var wire 32 e DPC [31:0] $end
$var wire 1 f DMemWrite $end
$var wire 1 g DJrFlag $end
$var wire 1 h DJalFlag $end
$var wire 32 i DForwardToRt [31:0] $end
$var wire 32 j DForwardToRs [31:0] $end
$var wire 32 k DEXTout [31:0] $end
$var wire 2 l DEXTop [1:0] $end
$var wire 1 m DBranch $end
$scope module D_CTRL $end
$var wire 1 m Branch $end
$var wire 1 h JalFlag $end
$var wire 1 g JrFlag $end
$var wire 1 f MemWrite $end
$var wire 1 n MemtoReg $end
$var wire 1 d RegDst $end
$var wire 1 o RegWrite $end
$var wire 1 p add $end
$var wire 1 q jr $end
$var wire 1 r newInE $end
$var wire 1 s sign $end
$var wire 1 t sub $end
$var wire 1 c useInE $end
$var wire 1 u sw $end
$var wire 5 v shamt [4:0] $end
$var wire 5 w rt [4:0] $end
$var wire 5 x rs [4:0] $end
$var wire 5 y rd [4:0] $end
$var wire 1 z ori $end
$var wire 6 { opcode [5:0] $end
$var wire 1 | lw $end
$var wire 1 } lui $end
$var wire 1 ~ jal $end
$var wire 26 !" instr_index [25:0] $end
$var wire 16 "" imm [15:0] $end
$var wire 6 #" funccode [5:0] $end
$var wire 1 $" beq $end
$var wire 3 %" WDsrc [2:0] $end
$var wire 32 &" Instr [31:0] $end
$var wire 2 '" EXTop [1:0] $end
$var wire 2 (" ALUsrc [1:0] $end
$var wire 3 )" ALUop [2:0] $end
$var wire 5 *" A3 [4:0] $end
$upscope $end
$scope module D_EXT $end
$var wire 2 +" EXTop [1:0] $end
$var wire 16 ," imm [15:0] $end
$var wire 32 -" EXTout [31:0] $end
$upscope $end
$scope module D_GRF $end
$var wire 5 ." A1 [4:0] $end
$var wire 5 /" A2 [4:0] $end
$var wire 32 0" WD [31:0] $end
$var wire 1 ! clk $end
$var wire 1 " reset $end
$var wire 1 0 WE $end
$var wire 32 1" RD2 [31:0] $end
$var wire 32 2" RD1 [31:0] $end
$var wire 32 3" PC [31:0] $end
$var wire 5 4" A3 [4:0] $end
$var integer 32 5" i [31:0] $end
$upscope $end
$scope module D_REG_E $end
$var wire 32 6" EXTin [31:0] $end
$var wire 32 7" RsDatain [31:0] $end
$var wire 32 8" RtDatain [31:0] $end
$var wire 1 ! clk $end
$var wire 1 9" reset $end
$var wire 32 :" PCin [31:0] $end
$var wire 32 ;" INSTRin [31:0] $end
$var reg 32 <" EXTout [31:0] $end
$var reg 32 =" INSTRout [31:0] $end
$var reg 32 >" PCout [31:0] $end
$var reg 32 ?" RsDataout [31:0] $end
$var reg 32 @" RtDataout [31:0] $end
$upscope $end
$scope module E_ALU $end
$var wire 32 A" NUM1 [31:0] $end
$var wire 32 B" NUM2 [31:0] $end
$var wire 32 C" ALUout [31:0] $end
$var wire 3 D" ALUop [2:0] $end
$upscope $end
$scope module E_CTRL $end
$var wire 1 E" Branch $end
$var wire 32 F" Instr [31:0] $end
$var wire 1 G" JalFlag $end
$var wire 1 H" JrFlag $end
$var wire 1 I" MemWrite $end
$var wire 1 U MemtoReg $end
$var wire 1 J" RegDst $end
$var wire 1 K" RegWrite $end
$var wire 1 L" add $end
$var wire 1 M" jr $end
$var wire 1 - newInE $end
$var wire 1 N" sign $end
$var wire 1 O" sub $end
$var wire 1 P" useInE $end
$var wire 1 Q" sw $end
$var wire 5 R" shamt [4:0] $end
$var wire 5 S" rt [4:0] $end
$var wire 5 T" rs [4:0] $end
$var wire 5 U" rd [4:0] $end
$var wire 1 V" ori $end
$var wire 6 W" opcode [5:0] $end
$var wire 1 X" lw $end
$var wire 1 Y" lui $end
$var wire 1 Z" jal $end
$var wire 26 [" instr_index [25:0] $end
$var wire 16 \" imm [15:0] $end
$var wire 6 ]" funccode [5:0] $end
$var wire 1 ^" beq $end
$var wire 3 _" WDsrc [2:0] $end
$var wire 2 `" EXTop [1:0] $end
$var wire 2 a" ALUsrc [1:0] $end
$var wire 3 b" ALUop [2:0] $end
$var wire 5 c" A3 [4:0] $end
$upscope $end
$scope module E_REG_M $end
$var wire 32 d" ALUin [31:0] $end
$var wire 32 e" EXTin [31:0] $end
$var wire 32 f" GRFrtIn [31:0] $end
$var wire 32 g" INSTRin [31:0] $end
$var wire 32 h" PCin [31:0] $end
$var wire 1 ! clk $end
$var wire 1 " reset $end
$var reg 32 i" ALUout [31:0] $end
$var reg 32 j" EXTout [31:0] $end
$var reg 32 k" GRFrtOut [31:0] $end
$var reg 32 l" INSTRout [31:0] $end
$var reg 32 m" PCout [31:0] $end
$upscope $end
$scope module F_IFU $end
$var wire 32 n" Instr [31:0] $end
$var wire 32 o" PCin [31:0] $end
$var wire 1 ' WE $end
$var wire 1 ! clk $end
$var wire 1 " reset $end
$var reg 32 p" PC [31:0] $end
$var integer 32 q" i [31:0] $end
$upscope $end
$scope module F_REG_D $end
$var wire 32 r" INSTRin [31:0] $end
$var wire 32 s" PCin [31:0] $end
$var wire 1 $ WE $end
$var wire 1 ! clk $end
$var wire 1 " reset $end
$var reg 32 t" INSTRout [31:0] $end
$var reg 32 u" PCout [31:0] $end
$upscope $end
$scope module M_CTRL $end
$var wire 1 v" Branch $end
$var wire 32 w" Instr [31:0] $end
$var wire 1 x" JalFlag $end
$var wire 1 y" JrFlag $end
$var wire 1 D MemWrite $end
$var wire 1 C MemtoReg $end
$var wire 1 z" RegDst $end
$var wire 1 {" RegWrite $end
$var wire 1 |" add $end
$var wire 1 }" jr $end
$var wire 1 ~" newInE $end
$var wire 1 !# sign $end
$var wire 1 "# sub $end
$var wire 1 ## useInE $end
$var wire 1 $# sw $end
$var wire 5 %# shamt [4:0] $end
$var wire 5 &# rt [4:0] $end
$var wire 5 '# rs [4:0] $end
$var wire 5 (# rd [4:0] $end
$var wire 1 )# ori $end
$var wire 6 *# opcode [5:0] $end
$var wire 1 +# lw $end
$var wire 1 ,# lui $end
$var wire 1 -# jal $end
$var wire 26 .# instr_index [25:0] $end
$var wire 16 /# imm [15:0] $end
$var wire 6 0# funccode [5:0] $end
$var wire 1 1# beq $end
$var wire 3 2# WDsrc [2:0] $end
$var wire 2 3# EXTop [1:0] $end
$var wire 2 4# ALUsrc [1:0] $end
$var wire 3 5# ALUop [2:0] $end
$var wire 5 6# A3 [4:0] $end
$upscope $end
$scope module M_DM $end
$var wire 32 7# Address [31:0] $end
$var wire 32 8# DMout [31:0] $end
$var wire 32 9# PC [31:0] $end
$var wire 32 :# WD [31:0] $end
$var wire 1 D WE $end
$var wire 1 ! clk $end
$var wire 1 " reset $end
$var integer 32 ;# i [31:0] $end
$upscope $end
$scope module M_REG_W $end
$var wire 32 <# ALUin [31:0] $end
$var wire 32 =# DMin [31:0] $end
$var wire 32 ># EXTin [31:0] $end
$var wire 32 ?# InstrIn [31:0] $end
$var wire 32 @# PCin [31:0] $end
$var wire 1 ! clk $end
$var wire 1 " reset $end
$var reg 32 A# ALUout [31:0] $end
$var reg 32 B# DMout [31:0] $end
$var reg 32 C# EXTout [31:0] $end
$var reg 32 D# InstrOut [31:0] $end
$var reg 32 E# PCout [31:0] $end
$upscope $end
$scope module W_CTRL $end
$var wire 1 F# Branch $end
$var wire 32 G# Instr [31:0] $end
$var wire 1 H# JalFlag $end
$var wire 1 I# JrFlag $end
$var wire 1 J# MemWrite $end
$var wire 1 K# MemtoReg $end
$var wire 1 L# RegDst $end
$var wire 1 0 RegWrite $end
$var wire 1 M# add $end
$var wire 1 N# jr $end
$var wire 1 O# newInE $end
$var wire 1 P# sign $end
$var wire 1 Q# sub $end
$var wire 1 R# useInE $end
$var wire 1 S# sw $end
$var wire 5 T# shamt [4:0] $end
$var wire 5 U# rt [4:0] $end
$var wire 5 V# rs [4:0] $end
$var wire 5 W# rd [4:0] $end
$var wire 1 X# ori $end
$var wire 6 Y# opcode [5:0] $end
$var wire 1 Z# lw $end
$var wire 1 [# lui $end
$var wire 1 \# jal $end
$var wire 26 ]# instr_index [25:0] $end
$var wire 16 ^# imm [15:0] $end
$var wire 6 _# funccode [5:0] $end
$var wire 1 `# beq $end
$var wire 3 a# WDsrc [2:0] $end
$var wire 2 b# EXTop [1:0] $end
$var wire 2 c# ALUsrc [1:0] $end
$var wire 3 d# ALUop [2:0] $end
$var wire 5 e# A3 [4:0] $end
$upscope $end
$upscope $end
$upscope $end
$enddefinitions $end
$comment Show the parameter values. $end
$dumpall
$end
#0
$dumpvars
bx e#
b0xx d#
b0x c#
bx b#
b0xx a#
x`#
bx _#
bx ^#
bx ]#
x\#
x[#
xZ#
bx Y#
xX#
bx W#
bx V#
bx U#
bx T#
xS#
xR#
xQ#
xP#
xO#
xN#
xM#
xL#
xK#
xJ#
xI#
xH#
bx G#
xF#
bx E#
bx D#
bx C#
bx B#
bx A#
bx @#
bx ?#
bx >#
bx =#
bx <#
b1000000000000 ;#
bx :#
bx 9#
bx 8#
bx 7#
bx 6#
b0xx 5#
b0x 4#
bx 3#
b0xx 2#
x1#
bx 0#
bx /#
bx .#
x-#
x,#
x+#
bx *#
x)#
bx (#
bx '#
bx &#
bx %#
x$#
x##
x"#
x!#
x~"
x}"
x|"
x{"
xz"
xy"
xx"
bx w"
xv"
bx u"
bx t"
b11000000000000 s"
b111100000010001111101010000100 r"
b1000000000000 q"
b11000000000000 p"
bx o"
b111100000010001111101010000100 n"
bx m"
bx l"
bx k"
bx j"
bx i"
bx h"
bx g"
bx f"
bx e"
bx d"
bx c"
b0xx b"
b0x a"
bx `"
b0xx _"
x^"
bx ]"
bx \"
bx ["
xZ"
xY"
xX"
bx W"
xV"
bx U"
bx T"
bx S"
bx R"
xQ"
xP"
xO"
xN"
xM"
xL"
xK"
xJ"
xI"
xH"
xG"
bx F"
xE"
b0xx D"
bx C"
bx B"
bx A"
bx @"
bx ?"
bx >"
bx ="
bx <"
bx ;"
bx :"
19"
bx 8"
bx 7"
bx 6"
b100000 5"
bx 4"
bx 3"
bx 2"
bx 1"
bx 0"
bx /"
bx ."
bx -"
bx ,"
bx +"
bx *"
b0xx )"
b0x ("
bx '"
bx &"
b0xx %"
x$"
bx #"
bx ""
bx !"
x~
x}
x|
bx {
xz
bx y
bx x
bx w
bx v
xu
xt
xs
xr
xq
xp
xo
xn
xm
bx l
bx k
bx j
bx i
xh
xg
xf
bx e
xd
xc
bx b
bx a
bx `
bx _
bx ^
bx ]
b0xx \
bx [
b0x Z
bx Y
bx X
bx W
bx V
xU
bx T
bx S
bx R
bx Q
b0xx P
bx O
bx N
bx M
b11000000000000 L
b111100000010001111101010000100 K
bx J
bx I
bx H
bx G
bx F
bx E
xD
xC
bx B
bx A
b0xx @
bx ?
bx >
bx =
bx <
bx ;
bx :
b0x 9
bx 8
bx 7
bx 6
bx 5
bx 4
bx 3
bx 2
bx 1
x0
b0xx /
bx .
x-
x,
x+
x*
x)
x(
x'
x&
bx %
x$
x#
1"
0!
$end
#1000
1+
0o
0K"
1,
0{"
00
1'
1$
0c
0P"
0##
0R#
0&
0*
b11000000000100 =
b11000000000100 o"
b0 <
b0 2"
b0 ;
b0 1"
0)
0(
0r
b11 8
b0 ("
b11 7
b0 Z
b0 a"
0-
b0 ]
b0 c"
b0 [
b0 C"
b0 d"
b0 4#
0~"
b0 J
b0 6#
b0 2
b0 0"
b0 c#
0O#
b0 6
b0 4"
b0 e#
b0 )"
0d
0s
0N"
b0 \
b0 D"
b0 b"
0J"
b0 T
b0 B"
0!#
b0 5#
0z"
0P#
b0 d#
0L#
b0 k
b0 -"
b0 6"
b0 *"
b0 i
b0 8"
b0 j
b0 7"
0p
0t
0g
0q
b11 %"
0#
b0 l
b0 '"
b0 +"
b11 P
b11 _"
b0 :
b0 `"
0L"
0O"
0H"
0M"
b0 %
b0 A"
b0 W
b0 V
b0 f"
b0 F
b11 @
b11 2#
b0 9
b0 3#
0|"
0"#
0y"
0}"
b0 A
b0 :#
b11 /
b11 a#
b0 b#
0M#
0Q#
0I#
0N#
b0 v
b0 `
b0 !"
b0 b
b0 ""
b0 ,"
b0 y
b0 ^
b0 w
b0 /"
b0 _
b0 x
b0 ."
b0 #"
0z
0n
0|
0f
0u
0m
0$"
0}
0h
0~
b0 {
b0 X
0V"
0U
0X"
0I"
0Q"
0E"
0^"
0Y"
0G"
0Z"
b0 W"
b0 ]"
b0 N
b0 T"
b0 M
b0 S"
b0 U"
b0 \"
b0 ["
b0 R"
b0 H
b0 8#
b0 =#
0)#
0C
0+#
0D
0$#
0v"
01#
0,#
0x"
0-#
b0 *#
b0 0#
b0 '#
b0 >
b0 &#
b0 (#
b0 /#
b0 .#
b0 %#
0X#
0K#
0Z#
0J#
0S#
0F#
0`#
0[#
0H#
0\#
b0 Y#
b0 _#
b0 V#
b0 U#
b0 W#
b0 ^#
b0 ]#
b0 T#
b0 e
b0 :"
b0 u"
b0 a
b0 &"
b0 ;"
b0 t"
b0 Y
b0 <"
b0 e"
b0 Q
b0 @"
b0 R
b0 ?"
b0 S
b0 >"
b0 h"
b0 O
b0 ="
b0 F"
b0 g"
b0 G
b0 j"
b0 >#
b0 E
b0 k"
b0 I
b0 i"
b0 7#
b0 <#
b0 B
b0 m"
b0 9#
b0 @#
b0 ?
b0 l"
b0 w"
b0 ?#
b0 3
b0 C#
b0 4
b0 B#
b0 5
b0 A#
b0 1
b0 3"
b0 E#
b0 .
b0 D#
b0 G#
b100000 5"
b1000000000000 ;#
1!
#2000
0!
#3000
b1000000000000 ;#
b100000 5"
1!
#4000
0!
#5000
b100000 5"
b1000000000000 ;#
1!
#6000
0!
#7000
b1000000000000 ;#
b100000 5"
1!
#8000
0!
#9000
b100000 5"
b1000000000000 ;#
1!
#10000
09"
0!
0"
#11000
b1 ("
b1000 *"
b10 %"
b11111010100001000000000000000000 k
b11111010100001000000000000000000 -"
b11111010100001000000000000000000 6"
1o
b11000000001000 =
b11000000001000 o"
0,
b10 l
b10 '"
b10 +"
b1010 v
b10001111101010000100 `
b10001111101010000100 !"
b1111101010000100 b
b1111101010000100 ""
b1111101010000100 ,"
b11111 y
b1000 ^
b1000 w
b1000 /"
b100 #"
1}
b1111 {
b110101000010001010100010011110 K
b110101000010001010100010011110 n"
b110101000010001010100010011110 r"
b11000000000000 e
b11000000000000 :"
b11000000000000 u"
b111100000010001111101010000100 a
b111100000010001111101010000100 &"
b111100000010001111101010000100 ;"
b111100000010001111101010000100 t"
b11000000000100 L
b11000000000100 p"
b11000000000100 s"
1!
#12000
0!
#13000
b11111010100001000000000000000000 [
b11111010100001000000000000000000 C"
b11111010100001000000000000000000 d"
b11111010100001000000000000000000 i
b11111010100001000000000000000000 8"
b11111010100001000000000000000000 j
b11111010100001000000000000000000 7"
b11111010100001000000000000000000 T
b11111010100001000000000000000000 B"
1,
b11111010100001000000000000000000 X
b1 Z
b1 a"
b1000 ]
b1000 c"
b10 )"
b1 8
b11 %"
b10 P
b10 _"
b11000000001100 =
b11000000001100 o"
1o
1K"
b1010100010011110 k
b1010100010011110 -"
b1010100010011110 6"
1+
1r
1c
b0 l
b0 '"
b0 +"
b10 `"
b111100000010011000101110001110 K
b111100000010011000101110001110 n"
b111100000010011000101110001110 r"
b10 v
b1000010001010100010011110 `
b1000010001010100010011110 !"
b1010100010011110 b
b1010100010011110 ""
b1010100010011110 ,"
b10101 y
b1000 _
b1000 x
b1000 ."
b11110 #"
1z
0}
b1101 {
1Y"
b1111 W"
b100 ]"
b1000 M
b1000 S"
b11111 U"
b1111101010000100 \"
b10001111101010000100 ["
b1010 R"
b11000000001000 L
b11000000001000 p"
b11000000001000 s"
b11000000000100 e
b11000000000100 :"
b11000000000100 u"
b110101000010001010100010011110 a
b110101000010001010100010011110 &"
b110101000010001010100010011110 ;"
b110101000010001010100010011110 t"
b11111010100001000000000000000000 Y
b11111010100001000000000000000000 <"
b11111010100001000000000000000000 e"
b11000000000000 S
b11000000000000 >"
b11000000000000 h"
b111100000010001111101010000100 O
b111100000010001111101010000100 ="
b111100000010001111101010000100 F"
b111100000010001111101010000100 g"
1!
#14000
0!
#15000
b1 4#
b1000 J
b1000 6#
b10 @
b10 2#
b10 \
b10 D"
b10 b"
b1 :
b11 P
b11 _"
b11111010100001000000000000000000 %
b11111010100001000000000000000000 A"
b11111010100001000000000000000000 W
b0 )"
b11 8
b10 %"
1{"
b11111010100001000000000000000000 V
b11111010100001000000000000000000 f"
1K"
b1001 *"
b0 i
b0 8"
b10001011100011100000000000000000 k
b10001011100011100000000000000000 -"
b10001011100011100000000000000000 6"
b11000000010000 =
b11000000010000 o"
b10 3#
b11111010100001001010100010011110 [
b11111010100001001010100010011110 C"
b11111010100001001010100010011110 d"
1-
1P"
b0 `"
0,
b0 j
b0 7"
0+
0r
0c
b10 l
b10 '"
b10 +"
b11111010100001000000000000000000 F
1,#
b1111 *#
b100 0#
b1000 >
b1000 &#
b11111 (#
b1111101010000100 /#
b10001111101010000100 .#
b1010 %#
b1010100010011110 T
b1010100010011110 B"
b0 X
1V"
0Y"
b1101 W"
b11110 ]"
b1000 N
b1000 T"
b10101 U"
b1010100010011110 \"
b1000010001010100010011110 ["
b10 R"
b1110 v
b10011000101110001110 `
b10011000101110001110 !"
b1000101110001110 b
b1000101110001110 ""
b1000101110001110 ,"
b10001 y
b1001 ^
b1001 w
b1001 /"
b0 _
b0 x
b0 ."
b1110 #"
0z
1}
b1111 {
b110101001010010111101010011010 K
b110101001010010111101010011010 n"
b110101001010010111101010011010 r"
b11111010100001000000000000000000 G
b11111010100001000000000000000000 j"
b11111010100001000000000000000000 >#
b11111010100001000000000000000000 I
b11111010100001000000000000000000 i"
b11111010100001000000000000000000 7#
b11111010100001000000000000000000 <#
b11000000000000 B
b11000000000000 m"
b11000000000000 9#
b11000000000000 @#
b111100000010001111101010000100 ?
b111100000010001111101010000100 l"
b111100000010001111101010000100 w"
b111100000010001111101010000100 ?#
b1010100010011110 Y
b1010100010011110 <"
b1010100010011110 e"
b11111010100001000000000000000000 Q
b11111010100001000000000000000000 @"
b11111010100001000000000000000000 R
b11111010100001000000000000000000 ?"
b11000000000100 S
b11000000000100 >"
b11000000000100 h"
b110101000010001010100010011110 O
b110101000010001010100010011110 ="
b110101000010001010100010011110 F"
b110101000010001010100010011110 g"
b11000000001000 e
b11000000001000 :"
b11000000001000 u"
b111100000010011000101110001110 a
b111100000010011000101110001110 &"
b111100000010011000101110001110 ;"
b111100000010011000101110001110 t"
b11000000001100 L
b11000000001100 p"
b11000000001100 s"
1!
#16000
0!
#17000
b10001011100011100000000000000000 j
b10001011100011100000000000000000 7"
b10001011100011100000000000000000 i
b10001011100011100000000000000000 8"
b10001011100011100000000000000000 [
b10001011100011100000000000000000 C"
b10001011100011100000000000000000 d"
b10001011100011100000000000000000 X
b1 c#
b1000 6
b1000 4"
b1000 e#
b10 )"
b1 8
b11 %"
b0 \
b0 D"
b0 b"
b0 :
b10 P
b10 _"
1,
1+
b10 5#
b11 @
b11 2#
b10 /
b10 a#
b11000000010100 =
b11000000010100 o"
1o
b1001 ]
b1001 c"
b0 V
b0 f"
1{"
10
b111101010011010 k
b111101010011010 -"
b111101010011010 6"
1r
1c
b0 l
b0 '"
b0 +"
0-
0P"
b10 `"
b0 %
b0 A"
b0 W
b11111010100001001010100010011110 F
b11111010100001000000000000000000 A
b11111010100001000000000000000000 :#
1~"
1##
b0 3#
b10 b#
b111100000010100111010100100010 K
b111100000010100111010100100010 n"
b111100000010100111010100100010 r"
b1010 v
b1001010010111101010011010 `
b1001010010111101010011010 !"
b111101010011010 b
b111101010011010 ""
b111101010011010 ,"
b1111 y
b1001 _
b1001 x
b1001 ."
b11010 #"
1z
0}
b1101 {
b10001011100011100000000000000000 T
b10001011100011100000000000000000 B"
0V"
1Y"
b1111 W"
b1110 ]"
b0 N
b0 T"
b1001 M
b1001 S"
b10001 U"
b1000101110001110 \"
b10011000101110001110 ["
b1110 R"
1)#
0,#
b1101 *#
b11110 0#
b1000 '#
b10101 (#
b1010100010011110 /#
b1000010001010100010011110 .#
b10 %#
b11111010100001000000000000000000 2
b11111010100001000000000000000000 0"
1[#
b1111 Y#
b100 _#
b1000 U#
b11111 W#
b1111101010000100 ^#
b10001111101010000100 ]#
b1010 T#
b11000000010000 L
b11000000010000 p"
b11000000010000 s"
b11000000001100 e
b11000000001100 :"
b11000000001100 u"
b110101001010010111101010011010 a
b110101001010010111101010011010 &"
b110101001010010111101010011010 ;"
b110101001010010111101010011010 t"
b10001011100011100000000000000000 Y
b10001011100011100000000000000000 <"
b10001011100011100000000000000000 e"
b0 Q
b0 @"
b0 R
b0 ?"
b11000000001000 S
b11000000001000 >"
b11000000001000 h"
b111100000010011000101110001110 O
b111100000010011000101110001110 ="
b111100000010011000101110001110 F"
b111100000010011000101110001110 g"
b1010100010011110 G
b1010100010011110 j"
b1010100010011110 >#
b11111010100001000000000000000000 E
b11111010100001000000000000000000 k"
b11111010100001001010100010011110 I
b11111010100001001010100010011110 i"
b11111010100001001010100010011110 7#
b11111010100001001010100010011110 <#
b11000000000100 B
b11000000000100 m"
b11000000000100 9#
b11000000000100 @#
b110101000010001010100010011110 ?
b110101000010001010100010011110 l"
b110101000010001010100010011110 w"
b110101000010001010100010011110 ?#
b11111010100001000000000000000000 3
b11111010100001000000000000000000 C#
b11111010100001000000000000000000 5
b11111010100001000000000000000000 A#
b11000000000000 1
b11000000000000 3"
b11000000000000 E#
b111100000010001111101010000100 .
b111100000010001111101010000100 D#
b111100000010001111101010000100 G#
1!
#18000
0!
#19000
b10 d#
b11 /
b11 a#
b0 5#
b10 @
b10 2#
b10 \
b10 D"
b10 b"
b1 :
b11 P
b11 _"
b0 )"
b11 8
b10 %"
10
b1001 J
b1001 6#
b0 A
b0 :#
b10001011100011100000000000000000 V
b10001011100011100000000000000000 f"
b10001011100011100000000000000000 %
b10001011100011100000000000000000 A"
b10001011100011100000000000000000 W
1K"
b1010 *"
b0 i
b0 8"
b1110101001000100000000000000000 k
b1110101001000100000000000000000 -"
b1110101001000100000000000000000 6"
b11000000011000 =
b11000000011000 o"
b11111010100001001010100010011110 2
b11111010100001001010100010011110 0"
1O#
1R#
b0 b#
0~"
0##
b10 3#
b10001011100011100111101010011010 [
b10001011100011100111101010011010 C"
b10001011100011100111101010011010 d"
1-
1P"
b0 `"
0,
b0 j
b0 7"
0+
0r
0c
b10 l
b10 '"
b10 +"
1X#
0[#
b1101 Y#
b11110 _#
b1000 V#
b10101 W#
b1010100010011110 ^#
b1000010001010100010011110 ]#
b10 T#
b10001011100011100000000000000000 F
0)#
1,#
b1111 *#
b1110 0#
b0 '#
b1001 >
b1001 &#
b10001 (#
b1000101110001110 /#
b10011000101110001110 .#
b1110 %#
b111101010011010 T
b111101010011010 B"
b0 X
1V"
0Y"
b1101 W"
b11010 ]"
b1001 N
b1001 T"
b1111 U"
b111101010011010 \"
b1001010010111101010011010 ["
b1010 R"
b10100 v
b10100111010100100010 `
b10100111010100100010 !"
b111010100100010 b
b111010100100010 ""
b111010100100010 ,"
b1110 y
b1010 ^
b1010 w
b1010 /"
b0 _
b0 x
b0 ."
b100010 #"
0z
1}
b1111 {
b110101010010101101011010011111 K
b110101010010101101011010011111 n"
b110101010010101101011010011111 r"
b1010100010011110 3
b1010100010011110 C#
b11111010100001001010100010011110 5
b11111010100001001010100010011110 A#
b11000000000100 1
b11000000000100 3"
b11000000000100 E#
b110101000010001010100010011110 .
b110101000010001010100010011110 D#
b110101000010001010100010011110 G#
b10001011100011100000000000000000 G
b10001011100011100000000000000000 j"
b10001011100011100000000000000000 >#
b0 E
b0 k"
b10001011100011100000000000000000 I
b10001011100011100000000000000000 i"
b10001011100011100000000000000000 7#
b10001011100011100000000000000000 <#
b11000000001000 B
b11000000001000 m"
b11000000001000 9#
b11000000001000 @#
b111100000010011000101110001110 ?
b111100000010011000101110001110 l"
b111100000010011000101110001110 w"
b111100000010011000101110001110 ?#
b111101010011010 Y
b111101010011010 <"
b111101010011010 e"
b10001011100011100000000000000000 Q
b10001011100011100000000000000000 @"
b10001011100011100000000000000000 R
b10001011100011100000000000000000 ?"
b11000000001100 S
b11000000001100 >"
b11000000001100 h"
b110101001010010111101010011010 O
b110101001010010111101010011010 ="
b110101001010010111101010011010 F"
b110101001010010111101010011010 g"
b11000000010000 e
b11000000010000 :"
b11000000010000 u"
b111100000010100111010100100010 a
b111100000010100111010100100010 &"
b111100000010100111010100100010 ;"
b111100000010100111010100100010 t"
b11000000010100 L
b11000000010100 p"
b11000000010100 s"
1!
#20000
0!
