P4/test/zby/src/mips_tb.vcd
$date
	Sat Nov 11 23:21:34 2023
$end
$version
	Icarus Verilog
$end
$timescale
	1ps
$end
$scope module mips_tb $end
$var reg 1 ! clk $end
$var reg 1 " reset $end
$scope module uut $end
$var wire 32 # MemAddr [31:0] $end
$var wire 32 $ MemData [31:0] $end
$var wire 32 % SrcA [31:0] $end
$var wire 1 ! clk $end
$var wire 1 " reset $end
$var wire 5 & shamt [4:0] $end
$var wire 5 ' rt [4:0] $end
$var wire 5 ( rs [4:0] $end
$var wire 5 ) rd [4:0] $end
$var wire 6 * opcode [5:0] $end
$var wire 6 + funct [5:0] $end
$var wire 1 , Zero $end
$var wire 32 - SrcB [31:0] $end
$var wire 32 . Result [31:0] $end
$var wire 1 / RegWrite $end
$var wire 2 0 RegDst [1:0] $end
$var wire 32 1 RegData [31:0] $end
$var wire 5 2 RegAddr [4:0] $end
$var wire 32 3 RD2 [31:0] $end
$var wire 32 4 RD1 [31:0] $end
$var wire 32 5 PC4 [31:0] $end
$var wire 32 6 PC [31:0] $end
$var wire 3 7 NPCControl [2:0] $end
$var wire 32 8 NPC [31:0] $end
$var wire 1 9 MemWrite $end
$var wire 32 : MemReadData [31:0] $end
$var wire 1 ; MemRead $end
$var wire 3 < Mem2Reg [2:0] $end
$var wire 1 = LessZero $end
$var wire 32 > Instr [31:0] $end
$var wire 26 ? Imm26 [25:0] $end
$var wire 16 @ Imm16 [15:0] $end
$var wire 1 A GreaterZero $end
$var wire 32 B EXTImm32 [31:0] $end
$var wire 3 C EXTControl [2:0] $end
$var wire 2 D DMControl [1:0] $end
$var wire 1 E Bgtz $end
$var wire 1 F Beq $end
$var wire 1 G ALUSrc $end
$var wire 3 H ALUControl [2:0] $end
$scope module MyALU $end
$var wire 32 I SrcA [31:0] $end
$var wire 5 J rs [4:0] $end
$var wire 5 K rt [4:0] $end
$var wire 5 L shamt [4:0] $end
$var wire 1 , Zero $end
$var wire 32 M SrcB [31:0] $end
$var wire 1 = LessZero $end
$var wire 1 A GreaterZero $end
$var wire 3 N ALUControl [2:0] $end
$var reg 32 O ALUResult [31:0] $end
$upscope $end
$scope module MyController $end
$var wire 1 G ALUSrc $end
$var wire 1 F Beq $end
$var wire 1 E Bgtz $end
$var wire 1 ; MemRead $end
$var wire 1 9 MemWrite $end
$var wire 1 / RegWrite $end
$var wire 6 P funct [5:0] $end
$var wire 1 Q load $end
$var wire 6 R opcode [5:0] $end
$var wire 1 S store $end
$var wire 1 T sw $end
$var wire 1 U sub $end
$var wire 1 V sll $end
$var wire 1 W sh $end
$var wire 1 X sb $end
$var wire 1 Y ori $end
$var wire 1 Z lw $end
$var wire 1 [ lui $end
$var wire 1 \ lh $end
$var wire 1 ] lb $end
$var wire 1 ^ jr $end
$var wire 1 _ jalr $end
$var wire 1 ` jal $end
$var wire 1 a j $end
$var wire 1 b isXor $end
$var wire 1 c bgtz $end
$var wire 1 d beq $end
$var wire 1 e addi $end
$var wire 1 f add $end
$var wire 2 g RegDst [1:0] $end
$var wire 1 h R $end
$var wire 3 i NPCControl [2:0] $end
$var wire 3 j Mem2Reg [2:0] $end
$var wire 3 k EXTControl [2:0] $end
$var wire 2 l DMControl [1:0] $end
$var wire 3 m ALUControl [2:0] $end
$upscope $end
$scope module MyDM $end
$var wire 2 n DMControl [1:0] $end
$var wire 32 o MemAddr [31:0] $end
$var wire 32 p MemData [31:0] $end
$var wire 1 ; MemRead $end
$var wire 32 q MemReadTemp [31:0] $end
$var wire 1 9 MemWrite $end
$var wire 32 r MemWriteData [31:0] $end
$var wire 1 ! clk $end
$var wire 1 " reset $end
$var wire 32 s PC [31:0] $end
$var wire 32 t MemReadData [31:0] $end
$var wire 16 u HalfReadTemp [15:0] $end
$var wire 1 v HalfOffset $end
$var wire 8 w ByteReadTemp [7:0] $end
$var wire 2 x ByteOffset [1:0] $end
$var reg 32 y MemWriteReg [31:0] $end
$var integer 32 z i [31:0] $end
$upscope $end
$scope module MyEXT $end
$var wire 3 { EXTControl [2:0] $end
$var wire 16 | Imm16 [15:0] $end
$var wire 32 } EXTResult [31:0] $end
$upscope $end
$scope module MyGRF $end
$var wire 5 ~ A1 [4:0] $end
$var wire 5 !" A2 [4:0] $end
$var wire 32 "" RD1 [31:0] $end
$var wire 32 #" RD2 [31:0] $end
$var wire 1 / RegWrite $end
$var wire 1 ! clk $end
$var wire 1 " reset $end
$var wire 32 $" RegData [31:0] $end
$var wire 5 %" RegAddr [4:0] $end
$var wire 32 &" PC [31:0] $end
$var integer 32 '" i [31:0] $end
$upscope $end
$scope module MyIFU $end
$var wire 32 (" Instr [31:0] $end
$var wire 1 ! clk $end
$var wire 1 " reset $end
$var wire 32 )" NPC [31:0] $end
$var reg 32 *" PC [31:0] $end
$var integer 32 +" i [31:0] $end
$upscope $end
$scope module MyNPC $end
$var wire 1 F Beq $end
$var wire 1 E Bgtz $end
$var wire 32 ," EXTImm32 [31:0] $end
$var wire 32 -" GRFrs [31:0] $end
$var wire 1 A GreaterZero $end
$var wire 26 ." Imm26 [25:0] $end
$var wire 3 /" NPCControl [2:0] $end
$var wire 32 0" PC [31:0] $end
$var wire 1 , Zero $end
$var wire 32 1" PC4 [31:0] $end
$var reg 32 2" NPC [31:0] $end
$upscope $end
$scope module RegAddrMUX $end
$var wire 5 3" in0 [4:0] $end
$var wire 5 4" in1 [4:0] $end
$var wire 5 5" in2 [4:0] $end
$var wire 5 6" in3 [4:0] $end
$var wire 2 7" sel [1:0] $end
$var reg 5 8" out [4:0] $end
$upscope $end
$scope module RegDataMUX $end
$var wire 32 9" in0 [31:0] $end
$var wire 32 :" in1 [31:0] $end
$var wire 32 ;" in2 [31:0] $end
$var wire 32 <" in3 [31:0] $end
$var wire 32 =" in4 [31:0] $end
$var wire 32 >" in5 [31:0] $end
$var wire 32 ?" in6 [31:0] $end
$var wire 32 @" in7 [31:0] $end
$var wire 3 A" sel [2:0] $end
$var reg 32 B" out [31:0] $end
$upscope $end
$scope module SrcBMUX $end
$var wire 32 C" in0 [31:0] $end
$var wire 32 D" in1 [31:0] $end
$var wire 1 G sel $end
$var reg 32 E" out [31:0] $end
$upscope $end
$upscope $end
$upscope $end
$enddefinitions $end
#0
$dumpvars
b10001011111100 E"
b10001011111100 D"
b0 C"
b10001011111100 B"
b0 A"
bz @"
bz ?"
bz >"
b0z ="
b11000000000100 <"
b10001011111100 ;"
b0 :"
b10001011111100 9"
b11101 8"
b0 7"
bz 6"
b11111 5"
b100 4"
b11101 3"
b11000000000100 2"
b11000000000100 1"
b11000000000000 0"
b0 /"
b111010010001011111100 ."
b0 -"
b10001011111100 ,"
b1000000000000 +"
b11000000000000 *"
b11000000000100 )"
b110100000111010010001011111100 ("
b100000 '"
b11000000000000 &"
b11101 %"
b10001011111100 $"
b0 #"
b0 ""
b11101 !"
b0 ~
b10001011111100 }
b10001011111100 |
b0 {
b110000000000 z
b0 y
b0 x
b0 w
0v
b0 u
b0 t
b11000000000000 s
b0 r
b0 q
b0 p
b10001011111100 o
b0 n
b11 m
b0 l
b0 k
b0 j
b0 i
0h
b0 g
0f
0e
0d
0c
0b
0a
0`
0_
0^
0]
0\
0[
0Z
1Y
0X
0W
0V
0U
0T
0S
b1101 R
0Q
b111100 P
b10001011111100 O
b11 N
b10001011111100 M
b1011 L
b11101 K
b0 J
b0 I
b11 H
1G
0F
0E
b0 D
b0 C
b10001011111100 B
0A
b10001011111100 @
b111010010001011111100 ?
b110100000111010010001011111100 >
0=
b0 <
0;
b0 :
09
b11000000000100 8
b0 7
b11000000000000 6
b11000000000100 5
b0 4
b0 3
b11101 2
b10001011111100 1
b0 0
1/
b10001011111100 .
b10001011111100 -
0,
b111100 +
b1101 *
b100 )
b0 (
b11101 '
b1011 &
b0 %
b0 $
b10001011111100 #
1"
0!
$end
#1000
b100000 '"
b110000000000 z
1!
#2000
0!
#3000
b110000000000 z
b100000 '"
1!
#4000
0!
#5000
b100000 '"
b110000000000 z
1!
#6000
0!
#7000
b110000000000 z
b100000 '"
1!
#8000
0!
#9000
b100000 '"
b110000000000 z
1!
#10000
0!
#11000
b100000 '"
b110000000000 z
1!
#12000
0!
#13000
b110000000000 z
b100000 '"
1!
#14000
0!
#15000
b100000 '"
b110000000000 z
1!
#16000
0!
#17000
b110000000000 z
b100000 '"
1!
#18000
0!
#19000
b100000 '"
b110000000000 z
1!
#20000
0!
0"
#21000
b1100000000000 1
b1100000000000 $"
b1100000000000 B"
b1100000000000 #
b1100000000000 o
b1100000000000 .
b1100000000000 O
b1100000000000 9"
b1100000000000 -
b1100000000000 M
b1100000000000 E"
b1100000000000 B
b1100000000000 }
b1100000000000 ,"
b1100000000000 ;"
b1100000000000 D"
b11100 2
b11100 %"
b11100 8"
b111000001100000000000 ?
b111000001100000000000 ."
b1100000000000 @
b1100000000000 |
b0 +
b0 P
b0 &
b0 L
b11 )
b11 4"
b11100 '
b11100 K
b11100 !"
b11100 3"
b110100000111000001100000000000 >
b110100000111000001100000000000 ("
b11000000001000 8
b11000000001000 )"
b11000000001000 2"
b11000000001000 5
b11000000001000 1"
b11000000001000 <"
b11000000000100 6
b11000000000100 s
b11000000000100 &"
b11000000000100 *"
b11000000000100 0"
b0 $
b0 p
b0 3
b0 #"
b0 C"
1!
#22000
0!
#23000
bx :
bx t
bx :"
bx r
bx y
b11000000000000 1
b11000000000000 $"
b11000000000000 B"
bx w
bx u
bx q
b11000000000000 #
b11000000000000 o
b11000000000000 .
b11000000000000 O
b11000000000000 9"
b11000000000000 -
b11000000000000 M
b11000000000000 E"
b11000000000000 B
b11000000000000 }
b11000000000000 ,"
b11000000000000 ;"
b11000000000000 D"
b11111 2
b11111 %"
b11111 8"
b111110011000000000000 ?
b111110011000000000000 ."
b11000000000000 @
b11000000000000 |
b110 )
b110 4"
b11111 '
b11111 K
b11111 !"
b11111 3"
b110100000111110011000000000000 >
b110100000111110011000000000000 ("
b11000000001100 8
b11000000001100 )"
b11000000001100 2"
b0 $
b0 p
b0 3
b0 #"
b0 C"
b11000000001100 5
b11000000001100 1"
b11000000001100 <"
b11000000001000 6
b11000000001000 s
b11000000001000 &"
b11000000001000 *"
b11000000001000 0"
1!
#24000
0!
#25000
1/
b1 0
b1 g
b1 7"
b0 :
b0 t
b0 :"
b0 r
b0 y
1,
b0 1
b0 $"
b0 B"
b0 x
0v
b0 w
b0 u
b0 q
0G
b0 #
b0 o
b0 .
b0 O
b0 9"
b1 H
b1 N
b1 m
b0 -
b0 M
b0 E"
1U
b1010000000100010 B
b1010000000100010 }
b1010000000100010 ,"
b1010000000100010 ;"
b1010000000100010 D"
b10100 2
b10100 %"
b10100 8"
1h
b10011011001010000000100010 ?
b10011011001010000000100010 ."
b1010000000100010 @
b1010000000100010 |
b100010 +
b100010 P
b10100 )
b10100 4"
b1100 '
b1100 K
b1100 !"
b1100 3"
b10011 (
b10011 J
b10011 ~
0Y
b0 *
b0 R
b10011011001010000000100010 >
b10011011001010000000100010 ("
b11000000010000 8
b11000000010000 )"
b11000000010000 2"
b11000000010000 5
b11000000010000 1"
b11000000010000 <"
b11000000001100 6
b11000000001100 s
b11000000001100 &"
b11000000001100 *"
b11000000001100 0"
b0 $
b0 p
b0 3
b0 #"
b0 C"
1!
#26000
0!
#27000
b10 0
b10 g
b10 7"
b11000000010100 1
b11000000010100 $"
b11000000010100 B"
b11 <
b11 j
b11 A"
b0 H
b0 N
b0 m
b10 7
b10 i
b10 /"
0U
b110010110100 B
b110010110100 }
b110010110100 ,"
b110010110100 ;"
b110010110100 D"
b11111 2
b11111 %"
b11111 8"
0h
b110010110100 ?
b110010110100 ."
b110010110100 @
b110010110100 |
b110100 +
b110100 P
b10010 &
b10010 L
b1 )
b1 4"
b0 '
b0 K
b0 !"
b0 3"
b0 (
b0 J
b0 ~
1`
b11 *
b11 R
b1100000000000000110010110100 >
b1100000000000000110010110100 ("
b11001011010000 8
b11001011010000 )"
b11001011010000 2"
b11000000010100 5
b11000000010100 1"
b11000000010100 <"
b11000000010000 6
b11000000010000 s
b11000000010000 &"
b11000000010000 *"
b11000000010000 0"
1!
#28000
0!
#29000
b11001100110000 8
b11001100110000 )"
b11001100110000 2"
b110011001100 B
b110011001100 }
b110011001100 ,"
b110011001100 ;"
b110011001100 D"
b110011001100 ?
b110011001100 ."
b110011001100 @
b110011001100 |
b1100 +
b1100 P
b10011 &
b10011 L
b1100000000000000110011001100 >
b1100000000000000110011001100 ("
b11001011010100 1
b11001011010100 $"
b11001011010100 B"
b11001011010100 5
b11001011010100 1"
b11001011010100 <"
b11001011010000 6
b11001011010000 s
b11001011010000 &"
b11001011010000 *"
b11001011010000 0"
1!
#30000
0!
#31000
b1 x
b110001001101 #
b110001001101 o
b110001001101 .
b110001001101 O
b110001001101 9"
0,
b110001001101 -
b110001001101 M
b110001001101 E"
1/
1G
b0 <
b0 j
b0 A"
b11 H
b11 N
b11 m
b10111 2
b10111 %"
b10111 8"
b0 7
b0 i
b0 /"
b0 0
b0 g
b0 7"
b11001100110100 8
b11001100110100 )"
b11001100110100 2"
b110001001101 B
b110001001101 }
b110001001101 ,"
b110001001101 ;"
b110001001101 D"
b101110000110001001101 ?
b101110000110001001101 ."
b110001001101 @
b110001001101 |
b1101 +
b1101 P
b10001 &
b10001 L
b10111 '
b10111 K
b10111 !"
b10111 3"
1Y
0`
b1101 *
b1101 R
b110100000101110000110001001101 >
b110100000101110000110001001101 ("
b110001001101 1
b110001001101 $"
b110001001101 B"
b11001100110100 5
b11001100110100 1"
b11001100110100 <"
b11001100110000 6
b11001100110000 s
b11001100110000 &"
b11001100110000 *"
b11001100110000 0"
1!
#32000
0!
#33000
b11010000 1
b11010000 $"
b11010000 B"
b0 x
b11010000 #
b11010000 o
b11010000 .
b11010000 O
b11010000 9"
b11010000 -
b11010000 M
b11010000 E"
b11010000 B
b11010000 }
b11010000 ,"
b11010000 ;"
b11010000 D"
b11000 2
b11000 %"
b11000 8"
b110000000000011010000 ?
b110000000000011010000 ."
b11010000 @
b11010000 |
b10000 +
b10000 P
b11 &
b11 L
b0 )
b0 4"
b11000 '
b11000 K
b11000 !"
b11000 3"
b110100000110000000000011010000 >
b110100000110000000000011010000 ("
b11001100111000 8
b11001100111000 )"
b11001100111000 2"
b11001100111000 5
b11001100111000 1"
b11001100111000 <"
b11001100110100 6
b11001100110100 s
b11001100110100 &"
b11001100110100 *"
b11001100110100 0"
b0 $
b0 p
b0 3
b0 #"
b0 C"
1!
#34000
0!
#35000
0/
b1 C
b1 k
b1 {
b11100000 1
b11100000 $"
b11100000 B"
b11100000 #
b11100000 o
b11100000 .
b11100000 O
b11100000 9"
b0 H
b0 N
b0 m
b10000 -
b10000 M
b10000 E"
b10000 B
b10000 }
b10000 ,"
b10000 ;"
b10000 D"
b10110 2
b10110 %"
b10110 8"
1A
19
1S
b11000101100000000000010000 ?
b11000101100000000000010000 ."
b10000 @
b10000 |
b0 &
b0 L
b10110 '
b10110 K
b10110 !"
b10110 3"
0,
b11010000 %
b11010000 I
b11010000 4
b11010000 ""
b11010000 -"
b11000 (
b11000 J
b11000 ~
0Y
1T
b101011 *
b101011 R
b10101111000101100000000000010000 >
b10101111000101100000000000010000 ("
b11001100111100 8
b11001100111100 )"
b11001100111100 2"
b0 $
b0 p
b0 3
b0 #"
b0 C"
b11001100111100 5
b11001100111100 1"
b11001100111100 <"
b11001100111000 6
b11001100111000 s
b11001100111000 &"
b11001100111000 *"
b11001100111000 0"
1!
#36000
0!
#37000
1/
b1 0
b1 g
b1 7"
b0 C
b0 k
b0 {
1,
0G
b0 -
b0 M
b0 E"
b100000000100000 B
b100000000100000 }
b100000000100000 ,"
b100000000100000 ;"
b100000000100000 D"
1f
b0 1
b0 $"
b0 B"
b1000 2
b1000 %"
b1000 8"
b0 #
b0 o
b0 .
b0 O
b0 9"
0A
1h
09
0S
b11110101010100000000100000 ?
b11110101010100000000100000 ."
b100000000100000 @
b100000000100000 |
b100000 +
b100000 P
b1000 )
b1000 4"
b10101 '
b10101 K
b10101 !"
b10101 3"
b0 %
b0 I
b0 4
b0 ""
b0 -"
b11110 (
b11110 J
b11110 ~
0T
b0 *
b0 R
b11110101010100000000100000 >
b11110101010100000000100000 ("
b11001101000000 8
b11001101000000 )"
b11001101000000 2"
b11001101000000 5
b11001101000000 1"
b11001101000000 <"
b11001100111100 6
b11001100111100 s
b11001100111100 &"
b11001100111100 *"
b11001100111100 0"
1!
#38000
0!
#39000
b0 0
b0 g
b0 7"
b111101000 1
b111101000 $"
b111101000 B"
b111101000 #
b111101000 o
b111101000 .
b111101000 O
b111101000 9"
0,
b111101000 -
b111101000 M
b111101000 E"
1G
b11 H
b11 N
b11 m
0f
b111101000 B
b111101000 }
b111101000 ,"
b111101000 ;"
b111101000 D"
b10 2
b10 %"
b10 8"
0h
b100000000111101000 ?
b100000000111101000 ."
b111101000 @
b111101000 |
b101000 +
b101000 P
b111 &
b111 L
b0 )
b0 4"
b10 '
b10 K
b10 !"
b10 3"
b0 (
b0 J
b0 ~
1Y
b1101 *
b1101 R
b110100000000100000000111101000 >
b110100000000100000000111101000 ("
b11001101000100 8
b11001101000100 )"
b11001101000100 2"
b11001101000100 5
b11001101000100 1"
b11001101000100 <"
b11001101000000 6
b11001101000000 s
b11001101000000 &"
b11001101000000 *"
b11001101000000 0"
1!
#40000
0!
#41000
b1 C
b1 k
b1 {
b111110100 #
b111110100 o
b111110100 .
b111110100 O
b111110100 9"
b0 H
b0 N
b0 m
b0 1
b0 $"
b0 B"
b1100 -
b1100 M
b1100 E"
b1 <
b1 j
b1 A"
b1100 B
b1100 }
b1100 ,"
b1100 ;"
b1100 D"
b10100 2
b10100 %"
b10100 8"
1A
1;
1Q
b10101000000000000001100 ?
b10101000000000000001100 ."
b1100 @
b1100 |
b1100 +
b1100 P
b0 &
b0 L
b10100 '
b10100 K
b10100 !"
b10100 3"
0,
b111101000 %
b111101000 I
b111101000 4
b111101000 ""
b111101000 -"
b10 (
b10 J
b10 ~
0Y
1Z
b100011 *
b100011 R
b10001100010101000000000000001100 >
b10001100010101000000000000001100 ("
b11001101001000 8
b11001101001000 )"
b11001101001000 2"
b11001101001000 5
b11001101001000 1"
b11001101001000 <"
b11001101000100 6
b11001101000100 s
b11001101000100 &"
b11001101000100 *"
b11001101000100 0"
b0 $
b0 p
b0 3
b0 #"
b0 C"
1!
#42000
0!
#43000
b10 C
b10 k
b10 {
b0 x
0v
b10100001000000100000000000000000 -
b10100001000000100000000000000000 M
b10100001000000100000000000000000 E"
b10100001000000100000000000000000 B
b10100001000000100000000000000000 }
b10100001000000100000000000000000 ,"
b10100001000000100000000000000000 ;"
b10100001000000100000000000000000 D"
b10100001000000100000000000000000 1
b10100001000000100000000000000000 $"
b10100001000000100000000000000000 B"
b10 <
b10 j
b10 A"
b10100001000000100000000000000000 #
b10100001000000100000000000000000 o
b10100001000000100000000000000000 .
b10100001000000100000000000000000 O
b10100001000000100000000000000000 9"
0A
0;
0Q
b101001010000100000010 ?
b101001010000100000010 ."
b1010000100000010 @
b1010000100000010 |
b10 +
b10 P
b100 &
b100 L
b10100 )
b10100 4"
b0 %
b0 I
b0 4
b0 ""
b0 -"
b0 (
b0 J
b0 ~
0Z
1[
b1111 *
b1111 R
b111100000101001010000100000010 >
b111100000101001010000100000010 ("
b11001101001100 8
b11001101001100 )"
b11001101001100 2"
b11001101001100 5
b11001101001100 1"
b11001101001100 <"
b11001101001000 6
b11001101001000 s
b11001101001000 &"
b11001101001000 *"
b11001101001000 0"
1!
#44000
0!
#45000
1/
b100010100 1
b100010100 $"
b100010100 B"
b100010100 #
b100010100 o
b100010100 .
b100010100 O
b100010100 9"
b11 H
b11 N
b11 m
b100010100 B
b100010100 }
b100010100 ,"
b100010100 ;"
b100010100 D"
0,
b100010100 -
b100010100 M
b100010100 E"
b0 <
b0 j
b0 A"
b0 C
b0 k
b0 {
1G
b1001 2
b1001 %"
b1001 8"
b10010000000100010100 ?
b10010000000100010100 ."
b100010100 @
b100010100 |
b10100 +
b10100 P
b0 )
b0 4"
b1001 '
b1001 K
b1001 !"
b1001 3"
1Y
0[
b1101 *
b1101 R
b110100000010010000000100010100 >
b110100000010010000000100010100 ("
b11001101010000 8
b11001101010000 )"
b11001101010000 2"
b11001101010000 5
b11001101010000 1"
b11001101010000 <"
b11001101001100 6
b11001101001100 s
b11001101001100 &"
b11001101001100 *"
b11001101001100 0"
b0 $
b0 p
b0 3
b0 #"
b0 C"
1!
#46000
0!
#47000
0/
b1 C
b1 k
b1 {
b100100000 1
b100100000 $"
b100100000 B"
b100100000 #
b100100000 o
b100100000 .
b100100000 O
b100100000 9"
b0 H
b0 N
b0 m
b1100 -
b1100 M
b1100 E"
b1100 B
b1100 }
b1100 ,"
b1100 ;"
b1100 D"
b11011 2
b11011 %"
b11011 8"
1A
19
1S
b1001110110000000000001100 ?
b1001110110000000000001100 ."
b1100 @
b1100 |
b1100 +
b1100 P
b0 &
b0 L
b11011 '
b11011 K
b11011 !"
b11011 3"
0,
b100010100 %
b100010100 I
b100010100 4
b100010100 ""
b100010100 -"
b1001 (
b1001 J
b1001 ~
0Y
1T
b101011 *
b101011 R
b10101101001110110000000000001100 >
b10101101001110110000000000001100 ("
b11001101010100 8
b11001101010100 )"
b11001101010100 2"
b0 $
b0 p
b0 3
b0 #"
b0 C"
b11001101010100 5
b11001101010100 1"
b11001101010100 <"
b11001101010000 6
b11001101010000 s
b11001101010000 &"
b11001101010000 *"
b11001101010000 0"
1!
#48000
0!
#49000
1/
b0 C
b0 k
b0 {
b111111000 -
b111111000 M
b111111000 E"
b11 H
b11 N
b11 m
b111111000 B
b111111000 }
b111111000 ,"
b111111000 ;"
b111111000 D"
b111111000 1
b111111000 $"
b111111000 B"
b11000 2
b11000 %"
b11000 8"
b111111000 #
b111111000 o
b111111000 .
b111111000 O
b111111000 9"
0A
09
0S
b110000000000111111000 ?
b110000000000111111000 ."
b111111000 @
b111111000 |
b111000 +
b111000 P
b111 &
b111 L
b11010000 $
b11010000 p
b11010000 3
b11010000 #"
b11010000 C"
b11000 '
b11000 K
b11000 !"
b11000 3"
b0 %
b0 I
b0 4
b0 ""
b0 -"
b0 (
b0 J
b0 ~
1Y
0T
b1101 *
b1101 R
b110100000110000000000111111000 >
b110100000110000000000111111000 ("
b11001101011000 8
b11001101011000 )"
b11001101011000 2"
b11001101011000 5
b11001101011000 1"
b11001101011000 <"
b11001101010100 6
b11001101010100 s
b11001101010100 &"
b11001101010100 *"
b11001101010100 0"
1!
#50000
0!
#51000
0/
b1 C
b1 k
b1 {
b1000011000 1
b1000011000 $"
b1000011000 B"
b1000011000 #
b1000011000 o
b1000011000 .
b1000011000 O
b1000011000 9"
b0 H
b0 N
b0 m
b100000 -
b100000 M
b100000 E"
b100000 B
b100000 }
b100000 ,"
b100000 ;"
b100000 D"
b10010 2
b10010 %"
b10010 8"
1A
19
1S
b11000100100000000000100000 ?
b11000100100000000000100000 ."
b100000 @
b100000 |
b100000 +
b100000 P
b0 &
b0 L
b10010 '
b10010 K
b10010 !"
b10010 3"
0,
b111111000 %
b111111000 I
b111111000 4
b111111000 ""
b111111000 -"
b11000 (
b11000 J
b11000 ~
0Y
1T
b101011 *
b101011 R
b10101111000100100000000000100000 >
b10101111000100100000000000100000 ("
b11001101011100 8
b11001101011100 )"
b11001101011100 2"
b0 $
b0 p
b0 3
b0 #"
b0 C"
b11001101011100 5
b11001101011100 1"
b11001101011100 <"
b11001101011000 6
b11001101011000 s
b11001101011000 &"
b11001101011000 *"
b11001101011000 0"
1!
#52000
0!
#53000
1/
b1 0
b1 g
b1 7"
b0 C
b0 k
b0 {
1,
b0 -
b0 M
b0 E"
0G
1f
b0 1
b0 $"
b0 B"
b0 2
b0 %"
b0 8"
b0 #
b0 o
b0 .
b0 O
b0 9"
0A
1h
09
0S
b10001100000000000000100000 ?
b10001100000000000000100000 ."
b10000 '
b10000 K
b10000 !"
b10000 3"
b0 %
b0 I
b0 4
b0 ""
b0 -"
b10001 (
b10001 J
b10001 ~
0T
b0 *
b0 R
b10001100000000000000100000 >
b10001100000000000000100000 ("
b11001101100000 8
b11001101100000 )"
b11001101100000 2"
b11001101100000 5
b11001101100000 1"
b11001101100000 <"
b11001101011100 6
b11001101011100 s
b11001101011100 &"
b11001101011100 *"
b11001101011100 0"
1!
#54000
0!
#55000
b10 0
b10 g
b10 7"
b11001101100100 1
b11001101100100 $"
b11001101100100 B"
b11 <
b11 j
b11 A"
b10 7
b10 i
b10 /"
0f
b110011100001 B
b110011100001 }
b110011100001 ,"
b110011100001 ;"
b110011100001 D"
b11111 2
b11111 %"
b11111 8"
0h
b110011100001 ?
b110011100001 ."
b110011100001 @
b110011100001 |
b100001 +
b100001 P
b10011 &
b10011 L
b1 )
b1 4"
b0 '
b0 K
b0 !"
b0 3"
b0 (
b0 J
b0 ~
1`
b11 *
b11 R
b1100000000000000110011100001 >
b1100000000000000110011100001 ("
b11001110000100 8
b11001110000100 )"
b11001110000100 2"
b11001101100100 5
b11001101100100 1"
b11001101100100 <"
b11001101100000 6
b11001101100000 s
b11001101100000 &"
b11001101100000 *"
b11001101100000 0"
1!
#56000
0!
#57000
bx :
bx t
bx :"
bx r
bx y
b11 x
1v
bx w
bx u
bx q
b1011001100111111 #
b1011001100111111 o
b1011001100111111 .
b1011001100111111 O
b1011001100111111 9"
0,
b1011001100111111 -
b1011001100111111 M
b1011001100111111 E"
1/
1G
b0 <
b0 j
b0 A"
b11 H
b11 N
b11 m
b1000 2
b1000 %"
b1000 8"
b0 7
b0 i
b0 /"
b0 0
b0 g
b0 7"
b11001110001000 8
b11001110001000 )"
b11001110001000 2"
b1011001100111111 B
b1011001100111111 }
b1011001100111111 ,"
b1011001100111111 ;"
b1011001100111111 D"
b11110010001011001100111111 ?
b11110010001011001100111111 ."
b1011001100111111 @
b1011001100111111 |
b111111 +
b111111 P
b1100 &
b1100 L
b10110 )
b10110 4"
b1000 '
b1000 K
b1000 !"
b1000 3"
b11110 (
b11110 J
b11110 ~
1Y
0`
b1101 *
b1101 R
b110111110010001011001100111111 >
b110111110010001011001100111111 ("
b1011001100111111 1
b1011001100111111 $"
b1011001100111111 B"
b11001110001000 5
b11001110001000 1"
b11001110001000 <"
b11001110000100 6
b11001110000100 s
b11001110000100 &"
b11001110000100 *"
b11001110000100 0"
1!
#58000
0!
#59000
b0 :
b0 t
b0 :"
b0 r
b0 y
b101111010011101 1
b101111010011101 $"
b101111010011101 B"
b1 x
0v
b0 w
b0 u
b0 q
b101111010011101 #
b101111010011101 o
b101111010011101 .
b101111010011101 O
b101111010011101 9"
b101111010011101 -
b101111010011101 M
b101111010011101 E"
b101111010011101 B
b101111010011101 }
b101111010011101 ,"
b101111010011101 ;"
b101111010011101 D"
b1100 2
b1100 %"
b1100 8"
b101011000101111010011101 ?
b101011000101111010011101 ."
b101111010011101 @
b101111010011101 |
b11101 +
b11101 P
b11010 &
b11010 L
b1011 )
b1011 4"
b1100 '
b1100 K
b1100 !"
b1100 3"
b101 (
b101 J
b101 ~
b110100101011000101111010011101 >
b110100101011000101111010011101 ("
b11001110001100 8
b11001110001100 )"
b11001110001100 2"
b0 $
b0 p
b0 3
b0 #"
b0 C"
b11001110001100 5
b11001110001100 1"
b11001110001100 <"
b11001110001000 6
b11001110001000 s
b11001110001000 &"
b11001110001000 *"
b11001110001000 0"
1!
#60000
0!
#61000
b1 0
b1 g
b1 7"
b0 1
b0 $"
b0 B"
b0 x
0G
b0 #
b0 o
b0 .
b0 O
b0 9"
b100 H
b100 N
b100 m
1,
b0 -
b0 M
b0 E"
1V
b0 B
b0 }
b0 ,"
b0 ;"
b0 D"
b0 2
b0 %"
b0 8"
1h
b0 ?
b0 ."
b0 @
b0 |
b0 +
b0 P
b0 &
b0 L
b0 )
b0 4"
b0 '
b0 K
b0 !"
b0 3"
b0 (
b0 J
b0 ~
0Y
b0 *
b0 R
b0 >
b0 ("
b11001110010000 8
b11001110010000 )"
b11001110010000 2"
b11001110010000 5
b11001110010000 1"
b11001110010000 <"
b11001110001100 6
b11001110001100 s
b11001110001100 &"
b11001110001100 *"
b11001110001100 0"
b0 $
b0 p
b0 3
b0 #"
b0 C"
1!
#62000
0!
#63000
b1110000 1
b1110000 $"
b1110000 B"
b1110000 #
b1110000 o
b1110000 .
b1110000 O
b1110000 9"
b0 0
b0 g
b0 7"
1/
0,
b1110000 -
b1110000 M
b1110000 E"
1G
b11 H
b11 N
b11 m
0V
b1110000 B
b1110000 }
b1110000 ,"
b1110000 ;"
b1110000 D"
0h
b1110000 ?
b1110000 ."
b1110000 @
b1110000 |
b110000 +
b110000 P
b1 &
b1 L
1Y
b1101 *
b1101 R
b110100000000000000000001110000 >
b110100000000000000000001110000 ("
b11001110010100 8
b11001110010100 )"
b11001110010100 2"
b11001110010100 5
b11001110010100 1"
b11001110010100 <"
b11001110010000 6
b11001110010000 s
b11001110010000 &"
b11001110010000 *"
b11001110010000 0"
1!
#64000
0!
