P5/6/aba/ref_CPU/mips_wave.vcd
$date
	Thu Nov 24 18:52:43 2022
$end
$version
	Icarus Verilog
$end
$timescale
	1ps
$end
$scope module tb_mips $end
$var reg 1 ! clk $end
$var reg 1 " reset $end
$scope module u_mips $end
$var wire 1 # EX_en $end
$var wire 1 $ ID_reset $end
$var wire 1 % MEM_en $end
$var wire 1 & MEM_reset $end
$var wire 1 ' WB_en $end
$var wire 1 ( WB_reset $end
$var wire 1 ! clk $end
$var wire 1 " reset $end
$var wire 32 ) next_pc [31:0] $end
$var wire 1 * if_j $end
$var wire 1 + Zero $end
$var wire 1 , RegWrite $end
$var wire 2 - RegDst [1:0] $end
$var wire 32 . RT_M [31:0] $end
$var wire 32 / RT_E [31:0] $end
$var wire 32 0 RS_E [31:0] $end
$var wire 32 1 RF_RD2 [31:0] $end
$var wire 32 2 RF_RD1 [31:0] $end
$var wire 2 3 PC_sel [1:0] $end
$var wire 1 4 PC_en $end
$var wire 32 5 PC_W [31:0] $end
$var wire 32 6 PC_M [31:0] $end
$var wire 32 7 PC_E [31:0] $end
$var wire 32 8 PC_D [31:0] $end
$var wire 32 9 PC8_W [31:0] $end
$var wire 32 : PC8_M [31:0] $end
$var wire 32 ; PC8_E [31:0] $end
$var wire 32 < PC8_D [31:0] $end
$var wire 32 = PC4_W [31:0] $end
$var wire 32 > PC4_M [31:0] $end
$var wire 32 ? PC4_E [31:0] $end
$var wire 32 @ PC4_D [31:0] $end
$var wire 32 A PC4 [31:0] $end
$var wire 32 B PC [31:0] $end
$var wire 2 C MemtoReg [1:0] $end
$var wire 1 D MemWrite $end
$var wire 1 E MemRead $end
$var wire 32 F MUX_WD [31:0] $end
$var wire 5 G MUX_A3 [4:0] $end
$var wire 32 H MFRTM [31:0] $end
$var wire 32 I MFRTE [31:0] $end
$var wire 32 J MFRTD [31:0] $end
$var wire 32 K MFRSE [31:0] $end
$var wire 32 L MFRSD [31:0] $end
$var wire 32 M Instr [31:0] $end
$var wire 32 N IR_W [31:0] $end
$var wire 32 O IR_M [31:0] $end
$var wire 32 P IR_E [31:0] $end
$var wire 32 Q IR_D [31:0] $end
$var wire 1 R ID_en $end
$var wire 3 S ForwardRTM [2:0] $end
$var wire 3 T ForwardRTE [2:0] $end
$var wire 3 U ForwardRTD [2:0] $end
$var wire 3 V ForwardRSE [2:0] $end
$var wire 3 W ForwardRSD [2:0] $end
$var wire 1 X EX_reset $end
$var wire 2 Y EXTop [1:0] $end
$var wire 32 Z EXT_out [31:0] $end
$var wire 32 [ EXT_E [31:0] $end
$var wire 32 \ DR_W [31:0] $end
$var wire 32 ] DM_out [31:0] $end
$var wire 1 ^ Branch $end
$var wire 32 _ AO_W [31:0] $end
$var wire 32 ` AO_M [31:0] $end
$var wire 32 a ALU_out [31:0] $end
$var wire 32 b ALU_B [31:0] $end
$var wire 32 c ALU_A [31:0] $end
$var wire 3 d ALUCtrl [2:0] $end
$var wire 1 e ALUBSrc $end
$var wire 1 f ALUASrc $end
$scope module my_EX $end
$var wire 1 ! clk $end
$var wire 1 # en $end
$var wire 1 g reset $end
$var wire 32 h RF_RD2 [31:0] $end
$var wire 32 i RF_RD1 [31:0] $end
$var wire 32 j PC_D [31:0] $end
$var wire 32 k PC8_D [31:0] $end
$var wire 32 l PC4_D [31:0] $end
$var wire 32 m IR_D [31:0] $end
$var wire 32 n EXT [31:0] $end
$var reg 32 o EXT_E [31:0] $end
$var reg 32 p IR_E [31:0] $end
$var reg 32 q PC4_E [31:0] $end
$var reg 32 r PC8_E [31:0] $end
$var reg 32 s PC_E [31:0] $end
$var reg 32 t RS_E [31:0] $end
$var reg 32 u RT_E [31:0] $end
$upscope $end
$scope module my_ID $end
$var wire 1 ! clk $end
$var wire 1 v reset $end
$var wire 1 R en $end
$var wire 32 w PC [31:0] $end
$var wire 32 x Instr [31:0] $end
$var reg 32 y IR_D [31:0] $end
$var reg 32 z PC4_D [31:0] $end
$var reg 32 { PC8_D [31:0] $end
$var reg 32 | PC_D [31:0] $end
$upscope $end
$scope module my_MEM $end
$var wire 32 } IR_E [31:0] $end
$var wire 32 ~ PC4_E [31:0] $end
$var wire 32 !" PC8_E [31:0] $end
$var wire 32 "" PC_E [31:0] $end
$var wire 1 ! clk $end
$var wire 1 % en $end
$var wire 1 #" reset $end
$var wire 32 $" RT_E [31:0] $end
$var wire 32 %" ALU [31:0] $end
$var reg 32 &" AO_M [31:0] $end
$var reg 32 '" IR_M [31:0] $end
$var reg 32 (" PC4_M [31:0] $end
$var reg 32 )" PC8_M [31:0] $end
$var reg 32 *" PC_M [31:0] $end
$var reg 32 +" RT_M [31:0] $end
$upscope $end
$scope module my_WB $end
$var wire 32 ," AO_M [31:0] $end
$var wire 32 -" IR_M [31:0] $end
$var wire 32 ." PC4_M [31:0] $end
$var wire 32 /" PC8_M [31:0] $end
$var wire 32 0" PC_M [31:0] $end
$var wire 1 ! clk $end
$var wire 1 ' en $end
$var wire 1 1" reset $end
$var wire 32 2" DM [31:0] $end
$var reg 32 3" AO_W [31:0] $end
$var reg 32 4" DR_W [31:0] $end
$var reg 32 5" IR_W [31:0] $end
$var reg 32 6" PC4_W [31:0] $end
$var reg 32 7" PC8_W [31:0] $end
$var reg 32 8" PC_W [31:0] $end
$upscope $end
$scope module my_alu $end
$var wire 32 9" B [31:0] $end
$var wire 3 :" ALUCtrl [2:0] $end
$var wire 32 ;" A [31:0] $end
$var reg 32 <" Result [31:0] $end
$upscope $end
$scope module my_cmp $end
$var wire 1 + Equal $end
$var wire 32 =" D2 [31:0] $end
$var wire 32 >" D1 [31:0] $end
$upscope $end
$scope module my_controllerD $end
$var wire 6 ?" func [5:0] $end
$var wire 6 @" op [5:0] $end
$var reg 1 A" ALUASrc $end
$var reg 1 B" ALUBSrc $end
$var reg 3 C" ALUCtrl [2:0] $end
$var reg 1 ^ Branch $end
$var reg 2 D" ExtOp [1:0] $end
$var reg 1 E" MemRead $end
$var reg 1 F" MemWrite $end
$var reg 2 G" MemtoReg [1:0] $end
$var reg 2 H" PCsel [1:0] $end
$var reg 2 I" RegDst [1:0] $end
$var reg 1 J" RegWrite $end
$var reg 1 * if_j $end
$upscope $end
$scope module my_controllerE $end
$var wire 6 K" func [5:0] $end
$var wire 6 L" op [5:0] $end
$var reg 1 f ALUASrc $end
$var reg 1 e ALUBSrc $end
$var reg 3 M" ALUCtrl [2:0] $end
$var reg 1 N" Branch $end
$var reg 2 O" ExtOp [1:0] $end
$var reg 1 P" MemRead $end
$var reg 1 Q" MemWrite $end
$var reg 2 R" MemtoReg [1:0] $end
$var reg 2 S" PCsel [1:0] $end
$var reg 2 T" RegDst [1:0] $end
$var reg 1 U" RegWrite $end
$var reg 1 V" if_j $end
$upscope $end
$scope module my_controllerM $end
$var wire 6 W" func [5:0] $end
$var wire 6 X" op [5:0] $end
$var reg 1 Y" ALUASrc $end
$var reg 1 Z" ALUBSrc $end
$var reg 3 [" ALUCtrl [2:0] $end
$var reg 1 \" Branch $end
$var reg 2 ]" ExtOp [1:0] $end
$var reg 1 E MemRead $end
$var reg 1 D MemWrite $end
$var reg 2 ^" MemtoReg [1:0] $end
$var reg 2 _" PCsel [1:0] $end
$var reg 2 `" RegDst [1:0] $end
$var reg 1 a" RegWrite $end
$var reg 1 b" if_j $end
$upscope $end
$scope module my_controllerW $end
$var wire 6 c" func [5:0] $end
$var wire 6 d" op [5:0] $end
$var reg 1 e" ALUASrc $end
$var reg 1 f" ALUBSrc $end
$var reg 3 g" ALUCtrl [2:0] $end
$var reg 1 h" Branch $end
$var reg 2 i" ExtOp [1:0] $end
$var reg 1 j" MemRead $end
$var reg 1 k" MemWrite $end
$var reg 2 l" MemtoReg [1:0] $end
$var reg 2 m" PCsel [1:0] $end
$var reg 2 n" RegDst [1:0] $end
$var reg 1 , RegWrite $end
$var reg 1 o" if_j $end
$upscope $end
$scope module my_dm $end
$var wire 32 p" MemAddr [31:0] $end
$var wire 1 E MemRead $end
$var wire 1 D MemWrite $end
$var wire 32 q" PC [31:0] $end
$var wire 1 ! clk $end
$var wire 1 " reset $end
$var wire 32 r" WD [31:0] $end
$var wire 32 s" RD [31:0] $end
$var integer 32 t" i [31:0] $end
$upscope $end
$scope module my_ext $end
$var wire 2 u" ExtOp [1:0] $end
$var wire 16 v" in [15:0] $end
$var reg 32 w" out [31:0] $end
$upscope $end
$scope module my_forward $end
$var wire 32 x" AO_M [31:0] $end
$var wire 32 y" PC8_E [31:0] $end
$var wire 32 z" PC8_M [31:0] $end
$var wire 32 {" PC8_W [31:0] $end
$var wire 32 |" RS_E [31:0] $end
$var wire 32 }" RT_E [31:0] $end
$var wire 32 ~" RT_M [31:0] $end
$var wire 32 !# WD [31:0] $end
$var wire 32 "# RF_RD2 [31:0] $end
$var wire 32 ## RF_RD1 [31:0] $end
$var wire 3 $# ForwardRTM [2:0] $end
$var wire 3 %# ForwardRTE [2:0] $end
$var wire 3 &# ForwardRTD [2:0] $end
$var wire 3 '# ForwardRSE [2:0] $end
$var wire 3 (# ForwardRSD [2:0] $end
$var reg 32 )# MFRSD [31:0] $end
$var reg 32 *# MFRSE [31:0] $end
$var reg 32 +# MFRTD [31:0] $end
$var reg 32 ,# MFRTE [31:0] $end
$var reg 32 -# MFRTM [31:0] $end
$upscope $end
$scope module my_grf $end
$var wire 32 .# PC [31:0] $end
$var wire 5 /# RA1 [4:0] $end
$var wire 5 0# RA2 [4:0] $end
$var wire 32 1# RD1 [31:0] $end
$var wire 32 2# RD2 [31:0] $end
$var wire 1 , RegWrite $end
$var wire 1 ! clk $end
$var wire 1 " reset $end
$var wire 32 3# WD [31:0] $end
$var wire 5 4# WA [4:0] $end
$var integer 32 5# i [31:0] $end
$upscope $end
$scope module my_hazard $end
$var wire 32 6# IR_D [31:0] $end
$var wire 32 7# IR_E [31:0] $end
$var wire 1 X IR_E_clr $end
$var wire 32 8# IR_M [31:0] $end
$var wire 32 9# IR_W [31:0] $end
$var wire 1 :# stall_b $end
$var wire 1 ;# stall_cal_i $end
$var wire 1 <# stall_cal_r $end
$var wire 1 =# stall_jalr $end
$var wire 1 ># stall_jr $end
$var wire 1 ?# stall_load $end
$var wire 1 @# stall_store $end
$var wire 1 4 PC_en $end
$var wire 1 R IR_D_en $end
$var wire 3 A# ForwardRTM [2:0] $end
$var wire 3 B# ForwardRTE [2:0] $end
$var wire 3 C# ForwardRTD [2:0] $end
$var wire 3 D# ForwardRSE [2:0] $end
$var wire 3 E# ForwardRSD [2:0] $end
$var reg 1 F# stall $end
$upscope $end
$scope module my_im $end
$var wire 32 G# instruction [31:0] $end
$var wire 32 H# PC [31:0] $end
$upscope $end
$scope module my_mux $end
$var wire 1 f ALUasel $end
$var wire 1 e ALUbsel $end
$var wire 32 I# AO_W [31:0] $end
$var wire 32 J# DR_W [31:0] $end
$var wire 32 K# EXT_E [31:0] $end
$var wire 32 L# IR_E [31:0] $end
$var wire 32 M# IR_W [31:0] $end
$var wire 32 N# MFRSE [31:0] $end
$var wire 32 O# MFRTE [31:0] $end
$var wire 2 P# MemtoReg [1:0] $end
$var wire 32 Q# PC8_W [31:0] $end
$var wire 2 R# RegDst [1:0] $end
$var reg 32 S# ALU_A [31:0] $end
$var reg 32 T# ALU_B [31:0] $end
$var reg 5 U# MUX_A3 [4:0] $end
$var reg 32 V# MUX_WD [31:0] $end
$upscope $end
$scope module my_npc $end
$var wire 1 ^ Branch $end
$var wire 26 W# I26 [25:0] $end
$var wire 32 X# MFRSD [31:0] $end
$var wire 32 Y# PC4 [31:0] $end
$var wire 32 Z# PC4D [31:0] $end
$var wire 2 [# PC_sel [1:0] $end
$var wire 1 + Zero $end
$var wire 1 * if_j $end
$var reg 32 \# NPC [31:0] $end
$var reg 32 ]# next_pc [31:0] $end
$upscope $end
$scope module my_pc $end
$var wire 1 ! clk $end
$var wire 1 4 en $end
$var wire 32 ^# next_pc [31:0] $end
$var wire 1 " reset $end
$var reg 32 _# pc [31:0] $end
$upscope $end
$upscope $end
$upscope $end
$enddefinitions $end
$comment Show the parameter values. $end
$dumpall
$end
#0
$dumpvars
b11000000000000 _#
b11000000000100 ^#
b11000000000100 ]#
bx \#
b0 [#
bx Z#
b11000000000100 Y#
b0 X#
b0 W#
bx V#
b0 U#
bx T#
b0 S#
b1 R#
bx Q#
b0 P#
bx O#
bx N#
b0 M#
b0 L#
bx K#
bx J#
bx I#
b11000000000000 H#
b111100000010000111001110010100 G#
0F#
b0 E#
b0 D#
b0 C#
b0 B#
b0 A#
0@#
0?#
0>#
0=#
0<#
0;#
0:#
b0 9#
b0 8#
b0 7#
b0 6#
b100000 5#
b0 4#
bx 3#
b0 2#
b0 1#
b0 0#
b0 /#
bx .#
bx -#
bx ,#
b0 +#
bx *#
b0 )#
b0 (#
b0 '#
b0 &#
b0 %#
b0 $#
b0 ##
b0 "#
bx !#
bx ~"
bx }"
bx |"
bx {"
bx z"
bx y"
bx x"
b0 w"
b0 v"
b0 u"
b10000000000 t"
b0 s"
bx r"
bx q"
bx p"
0o"
b1 n"
b0 m"
b0 l"
0k"
0j"
b0 i"
0h"
b100 g"
0f"
1e"
b0 d"
b0 c"
0b"
1a"
b1 `"
b0 _"
b0 ^"
b0 ]"
0\"
b100 ["
0Z"
1Y"
b0 X"
b0 W"
0V"
1U"
b1 T"
b0 S"
b0 R"
0Q"
0P"
b0 O"
0N"
b100 M"
b0 L"
b0 K"
1J"
b1 I"
b0 H"
b0 G"
0F"
0E"
b0 D"
b100 C"
0B"
1A"
b0 @"
b0 ?"
b0 >"
b0 ="
bx <"
b0 ;"
b100 :"
bx 9"
bx 8"
bx 7"
bx 6"
b0 5"
bx 4"
bx 3"
b0 2"
11"
bx 0"
bx /"
bx ."
b0 -"
bx ,"
bx +"
bx *"
bx )"
bx ("
b0 '"
bx &"
bx %"
bx $"
1#"
bx ""
bx !"
bx ~
b0 }
bx |
bx {
bx z
b0 y
b111100000010000111001110010100 x
b11000000000000 w
1v
bx u
bx t
bx s
bx r
bx q
b0 p
bx o
b0 n
b0 m
bx l
bx k
bx j
b0 i
b0 h
1g
1f
0e
b100 d
b0 c
bx b
bx a
bx `
bx _
0^
b0 ]
bx \
bx [
b0 Z
b0 Y
0X
b0 W
b0 V
b0 U
b0 T
b0 S
1R
b0 Q
b0 P
b0 O
b0 N
b111100000010000111001110010100 M
b0 L
bx K
b0 J
bx I
bx H
b0 G
bx F
0E
0D
b0 C
b11000000000000 B
b11000000000100 A
bx @
bx ?
bx >
bx =
bx <
bx ;
bx :
bx 9
bx 8
bx 7
bx 6
bx 5
14
b0 3
b0 2
b0 1
bx 0
bx /
bx .
b1 -
1,
1+
0*
b11000000000100 )
0(
1'
0&
1%
0$
1#
1"
0!
$end
#2000
b100000 5#
b10000000000 t"
1!
#4000
0!
#6000
b10000000000 t"
b100000 5#
1!
#8000
0!
#10000
b100000 5#
b10000000000 t"
1!
#12000
0!
#14000
b10000000000 t"
b100000 5#
1!
#16000
0!
#18000
b100000 5#
b10000000000 t"
1!
#20000
0v
0g
0#"
01"
0!
0"
#22000
b0 a
b0 %"
b0 <"
b0 b
b0 9"
b0 T#
b1110011100101000000000000000000 Z
b1110011100101000000000000000000 n
b1110011100101000000000000000000 w"
b10 C"
b10 Y
b10 D"
b10 u"
1B"
0A"
b0 I"
b0 I
b0 $"
b0 ,#
b0 O#
b0 K
b0 *#
b0 N#
b11000000001000 )
b11000000001000 ]#
b11000000001000 ^#
b11000000001000 \#
b10000111001110010100 W#
b111001110010100 v"
b1000 0#
b10100 ?"
b1111 @"
b110101000010000001111101000010 M
b110101000010000001111101000010 x
b110101000010000001111101000010 G#
b0 \
b0 4"
b0 J#
b0 [
b0 o
b0 K#
b0 /
b0 u
b0 }"
b0 0
b0 t
b0 |"
b11000000001000 <
b11000000001000 k
b11000000001000 {
b11000000000100 @
b11000000000100 l
b11000000000100 z
b11000000000100 Z#
b11000000000000 8
b11000000000000 j
b11000000000000 |
b111100000010000111001110010100 Q
b111100000010000111001110010100 m
b111100000010000111001110010100 y
b111100000010000111001110010100 6#
b11000000001000 A
b11000000001000 Y#
b11000000000100 B
b11000000000100 w
b11000000000100 H#
b11000000000100 _#
1!
#24000
0!
#26000
b1110011100101000000000000000000 b
b1110011100101000000000000000000 9"
b1110011100101000000000000000000 T#
b1110011100101000000000000000000 a
b1110011100101000000000000000000 %"
b1110011100101000000000000000000 <"
b1111101000010 Z
b1111101000010 n
b1111101000010 w"
b1 C"
b1 Y
b1 D"
b1 u"
b10 d
b10 :"
b10 M"
b10 O"
1e
0f
b0 T"
b11000000001100 )
b11000000001100 ]#
b11000000001100 ^#
b11000000001100 \#
b0 c
b0 ;"
b0 S#
b0 H
b0 r"
b0 -#
b111100000010010101110100000110 M
b111100000010010101110100000110 x
b111100000010010101110100000110 G#
b1000010000001111101000010 W#
b1111101000010 v"
b1000 /#
b10 ?"
b1101 @"
b10100 K"
b1111 L"
b11000000001100 A
b11000000001100 Y#
b11000000001000 B
b11000000001000 w
b11000000001000 H#
b11000000001000 _#
b11000000001100 <
b11000000001100 k
b11000000001100 {
b11000000001000 @
b11000000001000 l
b11000000001000 z
b11000000001000 Z#
b11000000000100 8
b11000000000100 j
b11000000000100 |
b110101000010000001111101000010 Q
b110101000010000001111101000010 m
b110101000010000001111101000010 y
b110101000010000001111101000010 6#
b1110011100101000000000000000000 [
b1110011100101000000000000000000 o
b1110011100101000000000000000000 K#
b11000000001000 ;
b11000000001000 r
b11000000001000 !"
b11000000001000 y"
b11000000000100 ?
b11000000000100 q
b11000000000100 ~
b11000000000000 7
b11000000000000 s
b11000000000000 ""
b111100000010000111001110010100 P
b111100000010000111001110010100 p
b111100000010000111001110010100 }
b111100000010000111001110010100 7#
b111100000010000111001110010100 L#
b0 .
b0 +"
b0 ~"
b0 `
b0 &"
b0 ,"
b0 p"
b0 x"
1!
#28000
0!
#30000
b1110011100101000000000000000000 c
b1110011100101000000000000000000 ;"
b1110011100101000000000000000000 S#
b1110011100101000001111101000010 a
b1110011100101000001111101000010 %"
b1110011100101000001111101000010 <"
b1110011100101000000000000000000 K
b1110011100101000000000000000000 *#
b1110011100101000000000000000000 N#
b10 ["
b10 ]"
1Z"
0Y"
b0 `"
b1 d
b1 :"
b1 M"
b1 O"
b1011101000001100000000000000000 Z
b1011101000001100000000000000000 n
b1011101000001100000000000000000 w"
b10 C"
b10 Y
b10 D"
b10 u"
b0 F
b0 !#
b0 3#
b0 V#
b1111101000010 b
b1111101000010 9"
b1111101000010 T#
b11000000010000 )
b11000000010000 ]#
b11000000010000 ^#
b11000000010000 \#
b1 V
b1 '#
b1 D#
b10100 W"
b1111 X"
b10 K"
b1101 L"
b10010101110100000110 W#
b101110100000110 v"
b1001 0#
b0 /#
b110 ?"
b1111 @"
b110101001010010010110111010001 M
b110101001010010010110111010001 x
b110101001010010010110111010001 G#
b0 _
b0 3"
b0 I#
b1110011100101000000000000000000 `
b1110011100101000000000000000000 &"
b1110011100101000000000000000000 ,"
b1110011100101000000000000000000 p"
b1110011100101000000000000000000 x"
b11000000001000 :
b11000000001000 )"
b11000000001000 /"
b11000000001000 z"
b11000000000100 >
b11000000000100 ("
b11000000000100 ."
b11000000000000 6
b11000000000000 *"
b11000000000000 0"
b11000000000000 q"
b111100000010000111001110010100 O
b111100000010000111001110010100 '"
b111100000010000111001110010100 -"
b111100000010000111001110010100 8#
b1111101000010 [
b1111101000010 o
b1111101000010 K#
b11000000001100 ;
b11000000001100 r
b11000000001100 !"
b11000000001100 y"
b11000000001000 ?
b11000000001000 q
b11000000001000 ~
b11000000000100 7
b11000000000100 s
b11000000000100 ""
b110101000010000001111101000010 P
b110101000010000001111101000010 p
b110101000010000001111101000010 }
b110101000010000001111101000010 7#
b110101000010000001111101000010 L#
b11000000010000 <
b11000000010000 k
b11000000010000 {
b11000000001100 @
b11000000001100 l
b11000000001100 z
b11000000001100 Z#
b11000000001000 8
b11000000001000 j
b11000000001000 |
b111100000010010101110100000110 Q
b111100000010010101110100000110 m
b111100000010010101110100000110 y
b111100000010010101110100000110 6#
b11000000010000 A
b11000000010000 Y#
b11000000001100 B
b11000000001100 w
b11000000001100 H#
b11000000001100 _#
1!
#32000
0!
#34000
b0 c
b0 ;"
b0 S#
b1011101000001100000000000000000 a
b1011101000001100000000000000000 %"
b1011101000001100000000000000000 <"
b10110111010001 Z
b10110111010001 n
b10110111010001 w"
b1 C"
b1 Y
b1 D"
b1 u"
b10 d
b10 :"
b10 M"
b10 O"
b1 ["
b1 ]"
b10 g"
b10 i"
1f"
0e"
b0 -
b0 n"
b0 R#
b11000000010100 )
b11000000010100 ]#
b11000000010100 ^#
b11000000010100 \#
b0 K
b0 *#
b0 N#
b1110011100101000000000000000000 F
b1110011100101000000000000000000 !#
b1110011100101000000000000000000 3#
b1110011100101000000000000000000 V#
b1000 G
b1000 4#
b1000 U#
b1011101000001100000000000000000 b
b1011101000001100000000000000000 9"
b1011101000001100000000000000000 T#
b0 V
b0 '#
b0 D#
b111100000010101001100111000110 M
b111100000010101001100111000110 x
b111100000010101001100111000110 G#
b1001010010010110111010001 W#
b10110111010001 v"
b1001 /#
b10001 ?"
b1101 @"
b110 K"
b1111 L"
b10 W"
b1101 X"
b10100 c"
b1111 d"
b11000000010100 A
b11000000010100 Y#
b11000000010000 B
b11000000010000 w
b11000000010000 H#
b11000000010000 _#
b11000000010100 <
b11000000010100 k
b11000000010100 {
b11000000010000 @
b11000000010000 l
b11000000010000 z
b11000000010000 Z#
b11000000001100 8
b11000000001100 j
b11000000001100 |
b110101001010010010110111010001 Q
b110101001010010010110111010001 m
b110101001010010010110111010001 y
b110101001010010010110111010001 6#
b1011101000001100000000000000000 [
b1011101000001100000000000000000 o
b1011101000001100000000000000000 K#
b11000000010000 ;
b11000000010000 r
b11000000010000 !"
b11000000010000 y"
b11000000001100 ?
b11000000001100 q
b11000000001100 ~
b11000000001000 7
b11000000001000 s
b11000000001000 ""
b111100000010010101110100000110 P
b111100000010010101110100000110 p
b111100000010010101110100000110 }
b111100000010010101110100000110 7#
b111100000010010101110100000110 L#
b1110011100101000001111101000010 `
b1110011100101000001111101000010 &"
b1110011100101000001111101000010 ,"
b1110011100101000001111101000010 p"
b1110011100101000001111101000010 x"
b11000000001100 :
b11000000001100 )"
b11000000001100 /"
b11000000001100 z"
b11000000001000 >
b11000000001000 ("
b11000000001000 ."
b11000000000100 6
b11000000000100 *"
b11000000000100 0"
b11000000000100 q"
b110101000010000001111101000010 O
b110101000010000001111101000010 '"
b110101000010000001111101000010 -"
b110101000010000001111101000010 8#
b1110011100101000000000000000000 _
b1110011100101000000000000000000 3"
b1110011100101000000000000000000 I#
b11000000001000 9
b11000000001000 7"
b11000000001000 {"
b11000000001000 Q#
b11000000000100 =
b11000000000100 6"
b11000000000000 5
b11000000000000 8"
b11000000000000 .#
b111100000010000111001110010100 N
b111100000010000111001110010100 5"
b111100000010000111001110010100 9#
b111100000010000111001110010100 M#
1!
#36000
0!
#38000
b1011101000001100000000000000000 c
b1011101000001100000000000000000 ;"
b1011101000001100000000000000000 S#
b1011101000001100010110111010001 a
b1011101000001100010110111010001 %"
b1011101000001100010110111010001 <"
b1011101000001100000000000000000 K
b1011101000001100000000000000000 *#
b1011101000001100000000000000000 N#
b1 g"
b1 i"
b10 ["
b10 ]"
b1 d
b1 :"
b1 M"
b1 O"
b10011001110001100000000000000000 Z
b10011001110001100000000000000000 n
b10011001110001100000000000000000 w"
b10 C"
b10 Y
b10 D"
b10 u"
b1110011100101000001111101000010 F
b1110011100101000001111101000010 !#
b1110011100101000001111101000010 3#
b1110011100101000001111101000010 V#
b10110111010001 b
b10110111010001 9"
b10110111010001 T#
b11000000011000 )
b11000000011000 ]#
b11000000011000 ^#
b11000000011000 \#
b1 V
b1 '#
b1 D#
b10 c"
b1101 d"
b110 W"
b1111 X"
b10001 K"
b1101 L"
b10101001100111000110 W#
b1001100111000110 v"
b1010 0#
b0 /#
b110 ?"
b1111 @"
b110101010010100010011101101100 M
b110101010010100010011101101100 x
b110101010010100010011101101100 G#
b1110011100101000001111101000010 _
b1110011100101000001111101000010 3"
b1110011100101000001111101000010 I#
b11000000001100 9
b11000000001100 7"
b11000000001100 {"
b11000000001100 Q#
b11000000001000 =
b11000000001000 6"
b11000000000100 5
b11000000000100 8"
b11000000000100 .#
b110101000010000001111101000010 N
b110101000010000001111101000010 5"
b110101000010000001111101000010 9#
b110101000010000001111101000010 M#
b1011101000001100000000000000000 `
b1011101000001100000000000000000 &"
b1011101000001100000000000000000 ,"
b1011101000001100000000000000000 p"
b1011101000001100000000000000000 x"
b11000000010000 :
b11000000010000 )"
b11000000010000 /"
b11000000010000 z"
b11000000001100 >
b11000000001100 ("
b11000000001100 ."
b11000000001000 6
b11000000001000 *"
b11000000001000 0"
b11000000001000 q"
b111100000010010101110100000110 O
b111100000010010101110100000110 '"
b111100000010010101110100000110 -"
b111100000010010101110100000110 8#
b10110111010001 [
b10110111010001 o
b10110111010001 K#
b11000000010100 ;
b11000000010100 r
b11000000010100 !"
b11000000010100 y"
b11000000010000 ?
b11000000010000 q
b11000000010000 ~
b11000000001100 7
b11000000001100 s
b11000000001100 ""
b110101001010010010110111010001 P
b110101001010010010110111010001 p
b110101001010010010110111010001 }
b110101001010010010110111010001 7#
b110101001010010010110111010001 L#
b11000000011000 <
b11000000011000 k
b11000000011000 {
b11000000010100 @
b11000000010100 l
b11000000010100 z
b11000000010100 Z#
b11000000010000 8
b11000000010000 j
b11000000010000 |
b111100000010101001100111000110 Q
b111100000010101001100111000110 m
b111100000010101001100111000110 y
b111100000010101001100111000110 6#
b11000000011000 A
b11000000011000 Y#
b11000000010100 B
b11000000010100 w
b11000000010100 H#
b11000000010100 _#
1!
#40000
0!
#42000
b0 c
b0 ;"
b0 S#
b10011001110001100000000000000000 a
b10011001110001100000000000000000 %"
b10011001110001100000000000000000 <"
b10011101101100 Z
b10011101101100 n
b10011101101100 w"
b1 C"
b1 Y
b1 D"
b1 u"
b10 d
b10 :"
b10 M"
b10 O"
b1 ["
b1 ]"
b10 g"
b10 i"
b11000000011100 )
b11000000011100 ]#
b11000000011100 ^#
b11000000011100 \#
b0 K
b0 *#
b0 N#
b1011101000001100000000000000000 F
b1011101000001100000000000000000 !#
b1011101000001100000000000000000 3#
b1011101000001100000000000000000 V#
b1001 G
b1001 4#
b1001 U#
b10011001110001100000000000000000 b
b10011001110001100000000000000000 9"
b10011001110001100000000000000000 T#
b0 V
b0 '#
b0 D#
b111100000010110010011000101010 M
b111100000010110010011000101010 x
b111100000010110010011000101010 G#
b1010010100010011101101100 W#
b10011101101100 v"
b1010 /#
b101100 ?"
b1101 @"
b110 K"
b1111 L"
b10001 W"
b1101 X"
b110 c"
b1111 d"
b11000000011100 A
b11000000011100 Y#
b11000000011000 B
b11000000011000 w
b11000000011000 H#
b11000000011000 _#
b11000000011100 <
b11000000011100 k
b11000000011100 {
b11000000011000 @
b11000000011000 l
b11000000011000 z
b11000000011000 Z#
b11000000010100 8
b11000000010100 j
b11000000010100 |
b110101010010100010011101101100 Q
b110101010010100010011101101100 m
b110101010010100010011101101100 y
b110101010010100010011101101100 6#
b10011001110001100000000000000000 [
b10011001110001100000000000000000 o
b10011001110001100000000000000000 K#
b11000000011000 ;
b11000000011000 r
b11000000011000 !"
b11000000011000 y"
b11000000010100 ?
b11000000010100 q
b11000000010100 ~
b11000000010000 7
b11000000010000 s
b11000000010000 ""
b111100000010101001100111000110 P
b111100000010101001100111000110 p
b111100000010101001100111000110 }
b111100000010101001100111000110 7#
b111100000010101001100111000110 L#
b1011101000001100010110111010001 `
b1011101000001100010110111010001 &"
b1011101000001100010110111010001 ,"
b1011101000001100010110111010001 p"
b1011101000001100010110111010001 x"
b11000000010100 :
b11000000010100 )"
b11000000010100 /"
b11000000010100 z"
b11000000010000 >
b11000000010000 ("
b11000000010000 ."
b11000000001100 6
b11000000001100 *"
b11000000001100 0"
b11000000001100 q"
b110101001010010010110111010001 O
b110101001010010010110111010001 '"
b110101001010010010110111010001 -"
b110101001010010010110111010001 8#
b1011101000001100000000000000000 _
b1011101000001100000000000000000 3"
b1011101000001100000000000000000 I#
b11000000010000 9
b11000000010000 7"
b11000000010000 {"
b11000000010000 Q#
b11000000001100 =
b11000000001100 6"
b11000000001000 5
b11000000001000 8"
b11000000001000 .#
b111100000010010101110100000110 N
b111100000010010101110100000110 5"
b111100000010010101110100000110 9#
b111100000010010101110100000110 M#
1!
#44000
0!
