P4/test/jwx/ref_CPU/mips_wave.vcd
$date
	Sat Nov 11 22:56:51 2023
$end
$version
	Icarus Verilog
$end
$timescale
	1ps
$end
$scope module tb_mips $end
$var reg 1 ! clk $end
$var reg 1 " reset $end
$scope module u_mips $end
$var wire 32 # MemAddr [31:0] $end
$var wire 32 $ MemData [31:0] $end
$var wire 32 % SrcA [31:0] $end
$var wire 1 ! clk $end
$var wire 1 " reset $end
$var wire 5 & shamt [4:0] $end
$var wire 5 ' rt [4:0] $end
$var wire 5 ( rs [4:0] $end
$var wire 5 ) rd [4:0] $end
$var wire 6 * opcode [5:0] $end
$var wire 6 + funct [5:0] $end
$var wire 1 , Zero $end
$var wire 32 - SrcB [31:0] $end
$var wire 32 . Result [31:0] $end
$var wire 1 / RegWrite $end
$var wire 2 0 RegDst [1:0] $end
$var wire 32 1 RegData [31:0] $end
$var wire 5 2 RegAddr [4:0] $end
$var wire 32 3 ReadByteData [31:0] $end
$var wire 32 4 RD2 [31:0] $end
$var wire 32 5 RD1 [31:0] $end
$var wire 32 6 PC4 [31:0] $end
$var wire 32 7 PC [31:0] $end
$var wire 3 8 NPCControl [2:0] $end
$var wire 32 9 NPC [31:0] $end
$var wire 1 : MemWrite $end
$var wire 32 ; MemReadData [31:0] $end
$var wire 1 < MemRead $end
$var wire 3 = Mem2Reg [2:0] $end
$var wire 1 > LessZero $end
$var wire 32 ? Instr [31:0] $end
$var wire 26 @ Imm26 [25:0] $end
$var wire 16 A Imm16 [15:0] $end
$var wire 1 B GreaterZero $end
$var wire 32 C EXTImm32 [31:0] $end
$var wire 3 D EXTControl [2:0] $end
$var wire 1 E Bgtz $end
$var wire 1 F Beq $end
$var wire 1 G ALUSrc $end
$var wire 3 H ALUControl [2:0] $end
$scope module MyALU $end
$var wire 32 I SrcA [31:0] $end
$var wire 5 J shamt [4:0] $end
$var wire 1 , Zero $end
$var wire 32 K SrcB [31:0] $end
$var wire 1 > LessZero $end
$var wire 1 B GreaterZero $end
$var wire 3 L ALUControl [2:0] $end
$var reg 32 M ALUResult [31:0] $end
$upscope $end
$scope module MyController $end
$var wire 1 G ALUSrc $end
$var wire 1 F Beq $end
$var wire 1 E Bgtz $end
$var wire 1 < MemRead $end
$var wire 1 : MemWrite $end
$var wire 1 / RegWrite $end
$var wire 6 N funct [5:0] $end
$var wire 6 O opcode [5:0] $end
$var wire 1 P sw $end
$var wire 1 Q sub $end
$var wire 1 R sll $end
$var wire 1 S ori $end
$var wire 1 T lw $end
$var wire 1 U lui $end
$var wire 1 V lb $end
$var wire 1 W jr $end
$var wire 1 X jalr $end
$var wire 1 Y jal $end
$var wire 1 Z j $end
$var wire 1 [ isXor $end
$var wire 1 \ bgtz $end
$var wire 1 ] beq $end
$var wire 1 ^ addi $end
$var wire 1 _ add $end
$var wire 2 ` RegDst [1:0] $end
$var wire 1 a R $end
$var wire 3 b NPCControl [2:0] $end
$var wire 3 c Mem2Reg [2:0] $end
$var wire 3 d EXTControl [2:0] $end
$var wire 3 e ALUControl [2:0] $end
$upscope $end
$scope module MyDM $end
$var wire 32 f MemAddr [31:0] $end
$var wire 32 g MemData [31:0] $end
$var wire 1 < MemRead $end
$var wire 1 : MemWrite $end
$var wire 1 ! clk $end
$var wire 1 " reset $end
$var wire 8 h Temp [7:0] $end
$var wire 32 i ReadByteData [31:0] $end
$var wire 32 j PC [31:0] $end
$var wire 2 k Offset [1:0] $end
$var wire 32 l MemReadData [31:0] $end
$var integer 32 m i [31:0] $end
$upscope $end
$scope module MyEXT $end
$var wire 3 n EXTControl [2:0] $end
$var wire 16 o Imm16 [15:0] $end
$var wire 32 p EXTResult [31:0] $end
$upscope $end
$scope module MyGRF $end
$var wire 5 q A1 [4:0] $end
$var wire 5 r A2 [4:0] $end
$var wire 32 s RD1 [31:0] $end
$var wire 32 t RD2 [31:0] $end
$var wire 1 / RegWrite $end
$var wire 1 ! clk $end
$var wire 1 " reset $end
$var wire 32 u RegData [31:0] $end
$var wire 5 v RegAddr [4:0] $end
$var wire 32 w PC [31:0] $end
$var integer 32 x i [31:0] $end
$upscope $end
$scope module MyIFU $end
$var wire 32 y Instr [31:0] $end
$var wire 1 ! clk $end
$var wire 1 " reset $end
$var wire 32 z NPC [31:0] $end
$var reg 32 { PC [31:0] $end
$var integer 32 | i [31:0] $end
$upscope $end
$scope module MyNPC $end
$var wire 1 F Beq $end
$var wire 1 E Bgtz $end
$var wire 32 } EXTImm32 [31:0] $end
$var wire 32 ~ GRFrs [31:0] $end
$var wire 1 B GreaterZero $end
$var wire 26 !" Imm26 [25:0] $end
$var wire 3 "" NPCControl [2:0] $end
$var wire 32 #" PC [31:0] $end
$var wire 1 , Zero $end
$var wire 32 $" PC4 [31:0] $end
$var reg 32 %" NPC [31:0] $end
$upscope $end
$scope module RegAddrMUX $end
$var wire 5 &" in0 [4:0] $end
$var wire 5 '" in1 [4:0] $end
$var wire 5 (" in2 [4:0] $end
$var wire 5 )" in3 [4:0] $end
$var wire 2 *" sel [1:0] $end
$var reg 5 +" out [4:0] $end
$upscope $end
$scope module RegDataMUX $end
$var wire 32 ," in0 [31:0] $end
$var wire 32 -" in1 [31:0] $end
$var wire 32 ." in2 [31:0] $end
$var wire 32 /" in3 [31:0] $end
$var wire 32 0" in4 [31:0] $end
$var wire 32 1" in5 [31:0] $end
$var wire 32 2" in6 [31:0] $end
$var wire 32 3" in7 [31:0] $end
$var wire 3 4" sel [2:0] $end
$var reg 32 5" out [31:0] $end
$upscope $end
$scope module SrcBMUX $end
$var wire 32 6" in0 [31:0] $end
$var wire 32 7" in1 [31:0] $end
$var wire 1 G sel $end
$var reg 32 8" out [31:0] $end
$upscope $end
$upscope $end
$upscope $end
$enddefinitions $end
#0
$dumpvars
b10111101110001010000000000000000 8"
b10111101110001010000000000000000 7"
b0 6"
b10111101110001010000000000000000 5"
b10 4"
bz 3"
bz 2"
bz 1"
b0 0"
b11000000000100 /"
b10111101110001010000000000000000 ."
b0 -"
b10111101110001010000000000000000 ,"
b1000 +"
b0 *"
bz )"
b11111 ("
b10111 '"
b1000 &"
b11000000000100 %"
b11000000000100 $"
b11000000000000 #"
b0 ""
b10001011110111000101 !"
b0 ~
b10111101110001010000000000000000 }
b1000000000000 |
b11000000000000 {
b11000000000100 z
b111100000010001011110111000101 y
b100000 x
b11000000000000 w
b1000 v
b10111101110001010000000000000000 u
b0 t
b0 s
b1000 r
b0 q
b10111101110001010000000000000000 p
b1011110111000101 o
b10 n
b110000000000 m
b0 l
b0 k
b11000000000000 j
b0 i
b0 h
b0 g
b10111101110001010000000000000000 f
b0 e
b10 d
b10 c
b0 b
0a
b0 `
0_
0^
0]
0\
0[
0Z
0Y
0X
0W
0V
1U
0T
0S
0R
0Q
0P
b1111 O
b101 N
b10111101110001010000000000000000 M
b0 L
b10111101110001010000000000000000 K
b10111 J
b0 I
b0 H
1G
0F
0E
b10 D
b10111101110001010000000000000000 C
0B
b1011110111000101 A
b10001011110111000101 @
b111100000010001011110111000101 ?
0>
b10 =
0<
b0 ;
0:
b11000000000100 9
b0 8
b11000000000000 7
b11000000000100 6
b0 5
b0 4
b0 3
b1000 2
b10111101110001010000000000000000 1
b0 0
1/
b10111101110001010000000000000000 .
b10111101110001010000000000000000 -
0,
b101 +
b1111 *
b10111 )
b0 (
b1000 '
b10111 &
b0 %
b0 $
b10111101110001010000000000000000 #
1"
0!
$end
#2000
b100000 x
b110000000000 m
1!
#4000
0!
#6000
b110000000000 m
b100000 x
1!
#8000
0!
#10000
b100000 x
b110000000000 m
1!
#12000
0!
#14000
b110000000000 m
b100000 x
1!
#16000
0!
#18000
b100000 x
b110000000000 m
1!
#20000
0!
0"
#22000
b11 k
1/
b110000101111 -
b110000101111 K
b110000101111 8"
b11 H
b11 L
b11 e
b110000101111 C
b110000101111 p
b110000101111 }
b110000101111 ."
b110000101111 7"
1G
b10111101110001010000110000101111 1
b10111101110001010000110000101111 u
b10111101110001010000110000101111 5"
b0 =
b0 c
b0 4"
b0 D
b0 d
b0 n
b10111101110001010000110000101111 #
b10111101110001010000110000101111 f
b10111101110001010000110000101111 .
b10111101110001010000110000101111 M
b10111101110001010000110000101111 ,"
1>
b1000010000000110000101111 @
b1000010000000110000101111 !"
b110000101111 A
b110000101111 o
b101111 +
b101111 N
b10000 &
b10000 J
b1 )
b1 '"
0,
b10111101110001010000000000000000 %
b10111101110001010000000000000000 I
b10111101110001010000000000000000 5
b10111101110001010000000000000000 s
b10111101110001010000000000000000 ~
b1000 (
b1000 q
1S
0U
b1101 *
b1101 O
b110101000010000000110000101111 ?
b110101000010000000110000101111 y
b11000000001000 9
b11000000001000 z
b11000000001000 %"
b10111101110001010000000000000000 $
b10111101110001010000000000000000 g
b10111101110001010000000000000000 4
b10111101110001010000000000000000 t
b10111101110001010000000000000000 6"
b11000000001000 6
b11000000001000 $"
b11000000001000 /"
b11000000000100 7
b11000000000100 j
b11000000000100 w
b11000000000100 {
b11000000000100 #"
1!
#24000
0!
#26000
b0 k
0,
b0 H
b0 L
b0 e
b100000111001110000000000000000 -
b100000111001110000000000000000 K
b100000111001110000000000000000 8"
b100000111001110000000000000000 1
b100000111001110000000000000000 u
b100000111001110000000000000000 5"
b10 =
b10 c
b10 4"
b10 D
b10 d
b10 n
b100000111001110000000000000000 C
b100000111001110000000000000000 p
b100000111001110000000000000000 }
b100000111001110000000000000000 ."
b100000111001110000000000000000 7"
b1001 2
b1001 v
b1001 +"
b100000111001110000000000000000 #
b100000111001110000000000000000 f
b100000111001110000000000000000 .
b100000111001110000000000000000 M
b100000111001110000000000000000 ,"
0>
b10010010000011100111 @
b10010010000011100111 !"
b10000011100111 A
b10000011100111 o
b100111 +
b100111 N
b11 &
b11 J
b100 )
b100 '"
b1001 '
b1001 r
b1001 &"
b0 (
b0 q
0S
1U
b1111 *
b1111 O
b111100000010010010000011100111 ?
b111100000010010010000011100111 y
b11000000001100 9
b11000000001100 z
b11000000001100 %"
b11000000001100 6
b11000000001100 $"
b11000000001100 /"
b11000000001000 7
b11000000001000 j
b11000000001000 w
b11000000001000 {
b11000000001000 #"
b0 %
b0 I
b0 5
b0 s
b0 ~
b0 $
b0 g
b0 4
b0 t
b0 6"
1!
#28000
0!
#30000
b11 k
1/
b111110100000111 -
b111110100000111 K
b111110100000111 8"
b11 H
b11 L
b11 e
b111110100000111 C
b111110100000111 p
b111110100000111 }
b111110100000111 ."
b111110100000111 7"
1G
b100000111001110111110100000111 1
b100000111001110111110100000111 u
b100000111001110111110100000111 5"
b0 =
b0 c
b0 4"
b0 D
b0 d
b0 n
b100000111001110111110100000111 #
b100000111001110111110100000111 f
b100000111001110111110100000111 .
b100000111001110111110100000111 M
b100000111001110111110100000111 ,"
1B
b1001010010111110100000111 @
b1001010010111110100000111 !"
b111110100000111 A
b111110100000111 o
b111 +
b111 N
b10100 &
b10100 J
b1111 )
b1111 '"
0,
b100000111001110000000000000000 %
b100000111001110000000000000000 I
b100000111001110000000000000000 5
b100000111001110000000000000000 s
b100000111001110000000000000000 ~
b1001 (
b1001 q
1S
0U
b1101 *
b1101 O
b110101001010010111110100000111 ?
b110101001010010111110100000111 y
b11000000010000 9
b11000000010000 z
b11000000010000 %"
b100000111001110000000000000000 $
b100000111001110000000000000000 g
b100000111001110000000000000000 4
b100000111001110000000000000000 t
b100000111001110000000000000000 6"
b11000000010000 6
b11000000010000 $"
b11000000010000 /"
b11000000001100 7
b11000000001100 j
b11000000001100 w
b11000000001100 {
b11000000001100 #"
1!
#32000
0!
#34000
b0 k
0,
b0 H
b0 L
b0 e
b11000110001110000000000000000000 -
b11000110001110000000000000000000 K
b11000110001110000000000000000000 8"
b11000110001110000000000000000000 1
b11000110001110000000000000000000 u
b11000110001110000000000000000000 5"
b10 =
b10 c
b10 4"
b10 D
b10 d
b10 n
b11000110001110000000000000000000 C
b11000110001110000000000000000000 p
b11000110001110000000000000000000 }
b11000110001110000000000000000000 ."
b11000110001110000000000000000000 7"
b1010 2
b1010 v
b1010 +"
b11000110001110000000000000000000 #
b11000110001110000000000000000000 f
b11000110001110000000000000000000 .
b11000110001110000000000000000000 M
b11000110001110000000000000000000 ,"
0B
b10101100011000111000 @
b10101100011000111000 !"
b1100011000111000 A
b1100011000111000 o
b111000 +
b111000 N
b11000 &
b11000 J
b11000 )
b11000 '"
b1010 '
b1010 r
b1010 &"
b0 (
b0 q
0S
1U
b1111 *
b1111 O
b111100000010101100011000111000 ?
b111100000010101100011000111000 y
b11000000010100 9
b11000000010100 z
b11000000010100 %"
b11000000010100 6
b11000000010100 $"
b11000000010100 /"
b11000000010000 7
b11000000010000 j
b11000000010000 w
b11000000010000 {
b11000000010000 #"
b0 %
b0 I
b0 5
b0 s
b0 ~
b0 $
b0 g
b0 4
b0 t
b0 6"
1!
#36000
0!
#38000
1/
b11110111110100 -
b11110111110100 K
b11110111110100 8"
b11 H
b11 L
b11 e
b11110111110100 C
b11110111110100 p
b11110111110100 }
b11110111110100 ."
b11110111110100 7"
1G
b11000110001110000011110111110100 1
b11000110001110000011110111110100 u
b11000110001110000011110111110100 5"
b0 =
b0 c
b0 4"
b0 D
b0 d
b0 n
b11000110001110000011110111110100 #
b11000110001110000011110111110100 f
b11000110001110000011110111110100 .
b11000110001110000011110111110100 M
b11000110001110000011110111110100 ,"
1>
b1010010100011110111110100 @
b1010010100011110111110100 !"
b11110111110100 A
b11110111110100 o
b110100 +
b110100 N
b10111 &
b10111 J
b111 )
b111 '"
0,
b11000110001110000000000000000000 %
b11000110001110000000000000000000 I
b11000110001110000000000000000000 5
b11000110001110000000000000000000 s
b11000110001110000000000000000000 ~
b1010 (
b1010 q
1S
0U
b1101 *
b1101 O
b110101010010100011110111110100 ?
b110101010010100011110111110100 y
b11000000011000 9
b11000000011000 z
b11000000011000 %"
b11000110001110000000000000000000 $
b11000110001110000000000000000000 g
b11000110001110000000000000000000 4
b11000110001110000000000000000000 t
b11000110001110000000000000000000 6"
b11000000011000 6
b11000000011000 $"
b11000000011000 /"
b11000000010100 7
b11000000010100 j
b11000000010100 w
b11000000010100 {
b11000000010100 #"
1!
#40000
0!
#42000
b0 k
0,
b0 H
b0 L
b0 e
b10001111100000000000000000 -
b10001111100000000000000000 K
b10001111100000000000000000 8"
b10001111100000000000000000 1
b10001111100000000000000000 u
b10001111100000000000000000 5"
b10 =
b10 c
b10 4"
b10 D
b10 d
b10 n
b10001111100000000000000000 C
b10001111100000000000000000 p
b10001111100000000000000000 }
b10001111100000000000000000 ."
b10001111100000000000000000 7"
b1011 2
b1011 v
b1011 +"
b10001111100000000000000000 #
b10001111100000000000000000 f
b10001111100000000000000000 .
b10001111100000000000000000 M
b10001111100000000000000000 ,"
0>
b10110000001000111110 @
b10110000001000111110 !"
b1000111110 A
b1000111110 o
b111110 +
b111110 N
b1000 &
b1000 J
b0 )
b0 '"
b1011 '
b1011 r
b1011 &"
b0 (
b0 q
0S
1U
b1111 *
b1111 O
b111100000010110000001000111110 ?
b111100000010110000001000111110 y
b11000000011100 9
b11000000011100 z
b11000000011100 %"
b11000000011100 6
b11000000011100 $"
b11000000011100 /"
b11000000011000 7
b11000000011000 j
b11000000011000 w
b11000000011000 {
b11000000011000 #"
b0 %
b0 I
b0 5
b0 s
b0 ~
b0 $
b0 g
b0 4
b0 t
b0 6"
1!
#44000
0!
#46000
b10 k
1/
b1000000100110 -
b1000000100110 K
b1000000100110 8"
b11 H
b11 L
b11 e
b1000000100110 C
b1000000100110 p
b1000000100110 }
b1000000100110 ."
b1000000100110 7"
1G
b10001111100001000000100110 1
b10001111100001000000100110 u
b10001111100001000000100110 5"
b0 =
b0 c
b0 4"
b0 D
b0 d
b0 n
b10001111100001000000100110 #
b10001111100001000000100110 f
b10001111100001000000100110 .
b10001111100001000000100110 M
b10001111100001000000100110 ,"
1B
b1011010110001000000100110 @
b1011010110001000000100110 !"
b1000000100110 A
b1000000100110 o
b100110 +
b100110 N
b0 &
b0 J
b10 )
b10 '"
0,
b10001111100000000000000000 %
b10001111100000000000000000 I
b10001111100000000000000000 5
b10001111100000000000000000 s
b10001111100000000000000000 ~
b1011 (
b1011 q
1S
0U
b1101 *
b1101 O
b110101011010110001000000100110 ?
b110101011010110001000000100110 y
b11000000100000 9
b11000000100000 z
b11000000100000 %"
b10001111100000000000000000 $
b10001111100000000000000000 g
b10001111100000000000000000 4
b10001111100000000000000000 t
b10001111100000000000000000 6"
b11000000100000 6
b11000000100000 $"
b11000000100000 /"
b11000000011100 7
b11000000011100 j
b11000000011100 w
b11000000011100 {
b11000000011100 #"
1!
#48000
0!
#50000
b0 k
0,
b0 H
b0 L
b0 e
b10110111111100010000000000000000 -
b10110111111100010000000000000000 K
b10110111111100010000000000000000 8"
b10110111111100010000000000000000 1
b10110111111100010000000000000000 u
b10110111111100010000000000000000 5"
b10 =
b10 c
b10 4"
b10 D
b10 d
b10 n
b10110111111100010000000000000000 C
b10110111111100010000000000000000 p
b10110111111100010000000000000000 }
b10110111111100010000000000000000 ."
b10110111111100010000000000000000 7"
b1100 2
b1100 v
b1100 +"
b10110111111100010000000000000000 #
b10110111111100010000000000000000 f
b10110111111100010000000000000000 .
b10110111111100010000000000000000 M
b10110111111100010000000000000000 ,"
0B
b11001011011111110001 @
b11001011011111110001 !"
b1011011111110001 A
b1011011111110001 o
b110001 +
b110001 N
b11111 &
b11111 J
b10110 )
b10110 '"
b1100 '
b1100 r
b1100 &"
b0 (
b0 q
0S
1U
b1111 *
b1111 O
b111100000011001011011111110001 ?
b111100000011001011011111110001 y
b11000000100100 9
b11000000100100 z
b11000000100100 %"
b11000000100100 6
b11000000100100 $"
b11000000100100 /"
b11000000100000 7
b11000000100000 j
b11000000100000 w
b11000000100000 {
b11000000100000 #"
b0 %
b0 I
b0 5
b0 s
b0 ~
b0 $
b0 g
b0 4
b0 t
b0 6"
1!
#52000
0!
#54000
b11 k
1/
b110100001110011 -
b110100001110011 K
b110100001110011 8"
b11 H
b11 L
b11 e
b110100001110011 C
b110100001110011 p
b110100001110011 }
b110100001110011 ."
b110100001110011 7"
1G
b10110111111100010110100001110011 1
b10110111111100010110100001110011 u
b10110111111100010110100001110011 5"
b0 =
b0 c
b0 4"
b0 D
b0 d
b0 n
b10110111111100010110100001110011 #
b10110111111100010110100001110011 f
b10110111111100010110100001110011 .
b10110111111100010110100001110011 M
b10110111111100010110100001110011 ,"
1>
b1100011000110100001110011 @
b1100011000110100001110011 !"
b110100001110011 A
b110100001110011 o
b110011 +
b110011 N
b1 &
b1 J
b1101 )
b1101 '"
0,
b10110111111100010000000000000000 %
b10110111111100010000000000000000 I
b10110111111100010000000000000000 5
b10110111111100010000000000000000 s
b10110111111100010000000000000000 ~
b1100 (
b1100 q
1S
0U
b1101 *
b1101 O
b110101100011000110100001110011 ?
b110101100011000110100001110011 y
b11000000101000 9
b11000000101000 z
b11000000101000 %"
b10110111111100010000000000000000 $
b10110111111100010000000000000000 g
b10110111111100010000000000000000 4
b10110111111100010000000000000000 t
b10110111111100010000000000000000 6"
b11000000101000 6
b11000000101000 $"
b11000000101000 /"
b11000000100100 7
b11000000100100 j
b11000000100100 w
b11000000100100 {
b11000000100100 #"
1!
#56000
0!
#58000
b0 k
0,
b0 H
b0 L
b0 e
b11111011101010000000000000000 -
b11111011101010000000000000000 K
b11111011101010000000000000000 8"
b11111011101010000000000000000 1
b11111011101010000000000000000 u
b11111011101010000000000000000 5"
b10 =
b10 c
b10 4"
b10 D
b10 d
b10 n
b11111011101010000000000000000 C
b11111011101010000000000000000 p
b11111011101010000000000000000 }
b11111011101010000000000000000 ."
b11111011101010000000000000000 7"
b1101 2
b1101 v
b1101 +"
b11111011101010000000000000000 #
b11111011101010000000000000000 f
b11111011101010000000000000000 .
b11111011101010000000000000000 M
b11111011101010000000000000000 ,"
0>
b11010001111101110101 @
b11010001111101110101 !"
b1111101110101 A
b1111101110101 o
b110101 +
b110101 N
b11101 &
b11101 J
b11 )
b11 '"
b1101 '
b1101 r
b1101 &"
b0 (
b0 q
0S
1U
b1111 *
b1111 O
b111100000011010001111101110101 ?
b111100000011010001111101110101 y
b11000000101100 9
b11000000101100 z
b11000000101100 %"
b11000000101100 6
b11000000101100 $"
b11000000101100 /"
b11000000101000 7
b11000000101000 j
b11000000101000 w
b11000000101000 {
b11000000101000 #"
b0 %
b0 I
b0 5
b0 s
b0 ~
b0 $
b0 g
b0 4
b0 t
b0 6"
1!
#60000
0!
#62000
1/
b1110010010000100 -
b1110010010000100 K
b1110010010000100 8"
b11 H
b11 L
b11 e
b1110010010000100 C
b1110010010000100 p
b1110010010000100 }
b1110010010000100 ."
b1110010010000100 7"
1G
b11111011101011110010010000100 1
b11111011101011110010010000100 u
b11111011101011110010010000100 5"
b0 =
b0 c
b0 4"
b0 D
b0 d
b0 n
b11111011101011110010010000100 #
b11111011101011110010010000100 f
b11111011101011110010010000100 .
b11111011101011110010010000100 M
b11111011101011110010010000100 ,"
1B
b1101011011110010010000100 @
b1101011011110010010000100 !"
b1110010010000100 A
b1110010010000100 o
b100 +
b100 N
b10010 &
b10010 J
b11100 )
b11100 '"
0,
b11111011101010000000000000000 %
b11111011101010000000000000000 I
b11111011101010000000000000000 5
b11111011101010000000000000000 s
b11111011101010000000000000000 ~
b1101 (
b1101 q
1S
0U
b1101 *
b1101 O
b110101101011011110010010000100 ?
b110101101011011110010010000100 y
b11000000110000 9
b11000000110000 z
b11000000110000 %"
b11111011101010000000000000000 $
b11111011101010000000000000000 g
b11111011101010000000000000000 4
b11111011101010000000000000000 t
b11111011101010000000000000000 6"
b11000000110000 6
b11000000110000 $"
b11000000110000 /"
b11000000101100 7
b11000000101100 j
b11000000101100 w
b11000000101100 {
b11000000101100 #"
1!
#64000
0!
#66000
b0 k
0,
b0 H
b0 L
b0 e
b11110111000100100000000000000000 -
b11110111000100100000000000000000 K
b11110111000100100000000000000000 8"
b11110111000100100000000000000000 1
b11110111000100100000000000000000 u
b11110111000100100000000000000000 5"
b10 =
b10 c
b10 4"
b10 D
b10 d
b10 n
b11110111000100100000000000000000 C
b11110111000100100000000000000000 p
b11110111000100100000000000000000 }
b11110111000100100000000000000000 ."
b11110111000100100000000000000000 7"
b1110 2
b1110 v
b1110 +"
b11110111000100100000000000000000 #
b11110111000100100000000000000000 f
b11110111000100100000000000000000 .
b11110111000100100000000000000000 M
b11110111000100100000000000000000 ,"
0B
b11101111011100010010 @
b11101111011100010010 !"
b1111011100010010 A
b1111011100010010 o
b10010 +
b10010 N
b11100 &
b11100 J
b11110 )
b11110 '"
b1110 '
b1110 r
b1110 &"
b0 (
b0 q
0S
1U
b1111 *
b1111 O
b111100000011101111011100010010 ?
b111100000011101111011100010010 y
b11000000110100 9
b11000000110100 z
b11000000110100 %"
b11000000110100 6
b11000000110100 $"
b11000000110100 /"
b11000000110000 7
b11000000110000 j
b11000000110000 w
b11000000110000 {
b11000000110000 #"
b0 %
b0 I
b0 5
b0 s
b0 ~
b0 $
b0 g
b0 4
b0 t
b0 6"
1!
#68000
0!
#70000
b11 k
1/
b1010001110110111 -
b1010001110110111 K
b1010001110110111 8"
b11 H
b11 L
b11 e
b1010001110110111 C
b1010001110110111 p
b1010001110110111 }
b1010001110110111 ."
b1010001110110111 7"
1G
b11110111000100101010001110110111 1
b11110111000100101010001110110111 u
b11110111000100101010001110110111 5"
b0 =
b0 c
b0 4"
b0 D
b0 d
b0 n
b11110111000100101010001110110111 #
b11110111000100101010001110110111 f
b11110111000100101010001110110111 .
b11110111000100101010001110110111 M
b11110111000100101010001110110111 ,"
1>
b1110011101010001110110111 @
b1110011101010001110110111 !"
b1010001110110111 A
b1010001110110111 o
b110111 +
b110111 N
b1110 &
b1110 J
b10100 )
b10100 '"
0,
b11110111000100100000000000000000 %
b11110111000100100000000000000000 I
b11110111000100100000000000000000 5
b11110111000100100000000000000000 s
b11110111000100100000000000000000 ~
b1110 (
b1110 q
1S
0U
b1101 *
b1101 O
b110101110011101010001110110111 ?
b110101110011101010001110110111 y
b11000000111000 9
b11000000111000 z
b11000000111000 %"
b11110111000100100000000000000000 $
b11110111000100100000000000000000 g
b11110111000100100000000000000000 4
b11110111000100100000000000000000 t
b11110111000100100000000000000000 6"
b11000000111000 6
b11000000111000 $"
b11000000111000 /"
b11000000110100 7
b11000000110100 j
b11000000110100 w
b11000000110100 {
b11000000110100 #"
1!
#72000
0!
#74000
b0 k
0,
b0 H
b0 L
b0 e
b11100011100010010000000000000000 -
b11100011100010010000000000000000 K
b11100011100010010000000000000000 8"
b11100011100010010000000000000000 1
b11100011100010010000000000000000 u
b11100011100010010000000000000000 5"
b10 =
b10 c
b10 4"
b10 D
b10 d
b10 n
b11100011100010010000000000000000 C
b11100011100010010000000000000000 p
b11100011100010010000000000000000 }
b11100011100010010000000000000000 ."
b11100011100010010000000000000000 7"
b1111 2
b1111 v
b1111 +"
b11100011100010010000000000000000 #
b11100011100010010000000000000000 f
b11100011100010010000000000000000 .
b11100011100010010000000000000000 M
b11100011100010010000000000000000 ,"
0>
b11111110001110001001 @
b11111110001110001001 !"
b1110001110001001 A
b1110001110001001 o
b1001 +
b1001 N
b11100 )
b11100 '"
b1111 '
b1111 r
b1111 &"
b0 (
b0 q
0S
1U
b1111 *
b1111 O
b111100000011111110001110001001 ?
b111100000011111110001110001001 y
b11000000111100 9
b11000000111100 z
b11000000111100 %"
b11000000111100 6
b11000000111100 $"
b11000000111100 /"
b11000000111000 7
b11000000111000 j
b11000000111000 w
b11000000111000 {
b11000000111000 #"
b0 %
b0 I
b0 5
b0 s
b0 ~
b0 $
b0 g
b0 4
b0 t
b0 6"
1!
#76000
0!
#78000
1/
b1110111001010000 -
b1110111001010000 K
b1110111001010000 8"
b11 H
b11 L
b11 e
b1110111001010000 C
b1110111001010000 p
b1110111001010000 }
b1110111001010000 ."
b1110111001010000 7"
1G
b11100011100010011110111001010000 1
b11100011100010011110111001010000 u
b11100011100010011110111001010000 5"
b0 =
b0 c
b0 4"
b0 D
b0 d
b0 n
b11100011100010011110111001010000 #
b11100011100010011110111001010000 f
b11100011100010011110111001010000 .
b11100011100010011110111001010000 M
b11100011100010011110111001010000 ,"
1>
b1111011111110111001010000 @
b1111011111110111001010000 !"
b1110111001010000 A
b1110111001010000 o
b10000 +
b10000 N
b11001 &
b11001 J
b11101 )
b11101 '"
0,
b11100011100010010000000000000000 %
b11100011100010010000000000000000 I
b11100011100010010000000000000000 5
b11100011100010010000000000000000 s
b11100011100010010000000000000000 ~
b1111 (
b1111 q
1S
0U
b1101 *
b1101 O
b110101111011111110111001010000 ?
b110101111011111110111001010000 y
b11000001000000 9
b11000001000000 z
b11000001000000 %"
b11100011100010010000000000000000 $
b11100011100010010000000000000000 g
b11100011100010010000000000000000 4
b11100011100010010000000000000000 t
b11100011100010010000000000000000 6"
b11000001000000 6
b11000001000000 $"
b11000001000000 /"
b11000000111100 7
b11000000111100 j
b11000000111100 w
b11000000111100 {
b11000000111100 #"
1!
#80000
0!
#82000
0,
b0 H
b0 L
b0 e
b110100101011000000000000000000 -
b110100101011000000000000000000 K
b110100101011000000000000000000 8"
b110100101011000000000000000000 1
b110100101011000000000000000000 u
b110100101011000000000000000000 5"
b10 =
b10 c
b10 4"
b10 D
b10 d
b10 n
b110100101011000000000000000000 C
b110100101011000000000000000000 p
b110100101011000000000000000000 }
b110100101011000000000000000000 ."
b110100101011000000000000000000 7"
b10000 2
b10000 v
b10000 +"
b110100101011000000000000000000 #
b110100101011000000000000000000 f
b110100101011000000000000000000 .
b110100101011000000000000000000 M
b110100101011000000000000000000 ,"
0>
b100000011010010101100 @
b100000011010010101100 !"
b11010010101100 A
b11010010101100 o
b101100 +
b101100 N
b10010 &
b10010 J
b110 )
b110 '"
b10000 '
b10000 r
b10000 &"
b0 (
b0 q
0S
1U
b1111 *
b1111 O
b111100000100000011010010101100 ?
b111100000100000011010010101100 y
b11000001000100 9
b11000001000100 z
b11000001000100 %"
b11000001000100 6
b11000001000100 $"
b11000001000100 /"
b11000001000000 7
b11000001000000 j
b11000001000000 w
b11000001000000 {
b11000001000000 #"
b0 %
b0 I
b0 5
b0 s
b0 ~
b0 $
b0 g
b0 4
b0 t
b0 6"
1!
#84000
0!
#86000
b11 k
1/
b1100011001001111 -
b1100011001001111 K
b1100011001001111 8"
b11 H
b11 L
b11 e
b1100011001001111 C
b1100011001001111 p
b1100011001001111 }
b1100011001001111 ."
b1100011001001111 7"
1G
b110100101011001100011001001111 1
b110100101011001100011001001111 u
b110100101011001100011001001111 5"
b0 =
b0 c
b0 4"
b0 D
b0 d
b0 n
b110100101011001100011001001111 #
b110100101011001100011001001111 f
b110100101011001100011001001111 .
b110100101011001100011001001111 M
b110100101011001100011001001111 ,"
1B
b10000100001100011001001111 @
b10000100001100011001001111 !"
b1100011001001111 A
b1100011001001111 o
b1111 +
b1111 N
b11001 &
b11001 J
b11000 )
b11000 '"
0,
b110100101011000000000000000000 %
b110100101011000000000000000000 I
b110100101011000000000000000000 5
b110100101011000000000000000000 s
b110100101011000000000000000000 ~
b10000 (
b10000 q
1S
0U
b1101 *
b1101 O
b110110000100001100011001001111 ?
b110110000100001100011001001111 y
b11000001001000 9
b11000001001000 z
b11000001001000 %"
b110100101011000000000000000000 $
b110100101011000000000000000000 g
b110100101011000000000000000000 4
b110100101011000000000000000000 t
b110100101011000000000000000000 6"
b11000001001000 6
b11000001001000 $"
b11000001001000 /"
b11000001000100 7
b11000001000100 j
b11000001000100 w
b11000001000100 {
b11000001000100 #"
1!
#88000
0!
